<svg xmlns="http://www.w3.org/2000/svg" viewBox="0 0 34.25 34.2">
  <path d="M13.9 27.8C6.2 27.8 0 21.5 0 13.9 0 6.2 6.3 0 13.9 0c7.7 0 13.9 6.3 13.9 13.9 0 7.6-6.2 13.9-13.9 13.9zm0-24.9C7.9 2.9 3 7.8 3 13.8s4.9 10.9 10.9 10.9 10.9-4.9 10.9-10.9S19.9 2.9 13.9 2.9z"/>
  <path d="M32.8 34.2c-.4 0-.8-.1-1.1-.4L21.6 23.7c-.6-.6-.6-1.5 0-2.1.6-.6 1.5-.6 2.1 0l10.1 10.1c.6.6.6 1.5 0 2.1-.2.3-.6.4-1 .4z"/>
</svg>
