<svg xmlns="http://www.w3.org/2000/svg" viewBox="0 0 48 126.017" fill="none" stroke="currentColor" stroke-width="3">
	<path d="M36.2 96.7L24 108.9 11.7 96.7"/>
	<path d="M36.2 111.7L24 123.9l-12.3-12.2"/>
	<path d="M24 85.5C11.6 85.5 1.5 75.4 1.5 63V24C1.5 11.6 11.6 1.5 24 1.5S46.5 11.6 46.5 24v39C46.4 75.4 36.3 85.5 24 85.5z"/>
	<path stroke-width="8" d="M24 23.2v12.3" stroke-linecap="round"/>
</svg>
