<svg xmlns="http://www.w3.org/2000/svg" viewBox="0 0 113 113">
  <circle cx="56.5" cy="56.5" r="55" fill="none" stroke="currentColor" stroke-width="3"/>
  <path fill="currentColor" d="M47.1 20.6L88 56.5 47.1 92.4z"/>
</svg>
