<svg xmlns="http://www.w3.org/2000/svg" viewBox="0 0 841.9 595.3">
	<g class="map">
		<g class="map-st0">
			<path class="map-st0 map-st0 map-st1" d="M356 111.3V127c0-.4 0-.7-.1-1.1-.2-.6-.2-1.2-.2-1.8v-15.7c0 .6.1 1.2.2 1.8.1.4.1.8.1 1.1z"></path>
			<g class="map-st0 map-st0">
				<path class="map-st2" d="M379.7 109v15.7c0 .3-.1.6-.2.9V110c.1-.4.2-.7.2-1z"></path>
				<path class="map-st3" d="M379.5 110v15.7c-.1.2-.3.5-.4.7-.5.6-.9 1.2-1.2 1.9v-15.7c.3-.6.7-1.2 1.2-1.9.1-.3.3-.5.4-.7z"></path>
				<path class="map-st2" d="M377.8 112.5v15.7c-.5 1-.6 2.1-.6 3.2v-15.7c0-1.1.2-2.2.6-3.2z"></path>
			</g>
			<path class="map-st0 map-st0 map-st1" d="M353.5 122.9v15.7c0-.2-.1-.5-.2-.7-.5-.8-1.2-1.5-1.7-2.3-.1-.3-.2-.7-.2-1v-15.7c0 .4.1.7.2 1 .4.8 1.2 1.5 1.7 2.3.1.2.2.5.2.7z"></path>
			<g class="map-st0 map-st0">
				<path class="map-st2" d="M372.9 122.6V138.4v-15.8c-.1.1 0 0 0 0z"></path>
				<path class="map-st3" d="M372.8 122.7V138.5v-15.8z"></path>
				<path class="map-st4" d="M372.8 122.7v15.7l-.1.1.1-15.8c0 .1 0 .1 0 0z"></path>
				<path class="map-st1" d="M372.7 122.8v15.7c-.1.1-.4.2-.9.2V123c.5 0 .8-.1.9-.2z"></path>
			</g>
			<path class="map-st0 map-st0 map-st1" d="M371.9 123v15.7h-.1c-.3 0-.6-.2-.9-.3v-15.7c.3.1.6.3 1 .3-.1 0 0 0 0 0z"></path>
			<g class="map-st0 map-st0">
				<path class="map-st1" d="M362.3 128.3V144c0-.2-.1-.3-.2-.3s-.3.1-.6.3v-15.7c.3-.2.5-.3.6-.3.1 0 .2.1.2.3z"></path>
				<path class="map-st4" d="M361.5 128.2v15.7c-.1.1-.2.1-.3.2v-15.7c.1-.1.2-.1.3-.2z"></path>
			</g>
			<path class="map-st0 map-st0 map-st1" d="M362.2 129.2v15.6-15.7.1z"></path>
			<g class="map-st0 map-st0">
				<path class="map-st4" d="M361.2 128.4v15.7-15.7z"></path>
				<path class="map-st3" d="M361.2 128.4v15.7s0 .1-.1.1l.1-15.8c-.1.1-.1.1 0 0z"></path>
				<path class="map-st2" d="M361.1 128.5v15.7c-.1.2-.1.5-.1.8-.1.5-.3 1-.5 1.5v-15.7c.2-.5.3-1 .5-1.5.1-.2 0-.6.1-.8z"></path>
			</g>
			<path class="map-st0 map-st0 map-st1" d="M360.5 130.8v15.7c-.1 0-.2.1-.3.1v-15.7c.2 0 .3-.1.3-.1z"></path>
			<path class="map-st0 map-st0 map-st2" d="M360.3 130.9v15.7c0 .1-.1.3-.1.4v-15.7c0-.2 0-.3.1-.4z"></path>
			<g class="map-st0 map-st0">
				<path class="map-st4" d="M360.2 131.3V147l-.9.6v-15.7l.9-.6z"></path>
				<path class="map-st1" d="M359.3 131.9v15.7c-1.5 1-3.1 1.9-5.1 2.2-.3 0-.5.1-.8.1-1.5 0-2.5-.6-3.1-2.1-.5-1.5-1.1-2.9-1.5-4.4-.1-.4-.1-.7-.1-1v-15.7c0 .3.1.6.1 1 .4 1.5 1 2.9 1.5 4.4.6 1.5 1.6 2.1 3.1 2.1.3 0 .5 0 .8-.1 2-.3 3.6-1.2 5.1-2.2z"></path>
			</g>
			<path class="map-st0 map-st0 map-st2" d="M389.8 131.2V147.1c-.1 2.8-.3 5.5-.8 8.3v-15.7c.5-2.7.7-5.5.8-8.3v-.2zM389 139.6v15.7c-.2 1.3-.4 2.6-.4 3.9v-15.7c0-1.2.1-2.5.4-3.9z"></path>
			<path class="map-st5" d="M389 139.6c-.5 2.8-.7 5.4.3 8.1.8 2.4-1.4 4.8-4.4 5.3-.8.1-1.7.2-2.5.2-1.9 0-3.7-.4-5.5-1.4-1.2-.7-2.2-1.7-3.4-2-2.9-.9-6.4-1.3-8.4-3.3-1.7-1.7-2.1-4.4-3.2-6.7-.3-.5-.9-1-1.4-1.3-1.6-1.1-1.8-2.4-1.1-4 .4-1 .6-2.1.9-3.2.1-.1.2-.1.3-.2 0-.1 0-.2.1-.3.9-.3 1.7-.7 1.6-1.7 0-.2.3-1.2-.1-1.2-.2 0-.4.1-.8.5-.2.2-.1.6-.2.9-.1.5-.3 1-.5 1.5-.1 0-.2.1-.3.1 0 .1-.1.3-.1.4-1.8 1.3-3.6 2.5-6 2.8-.3 0-.5.1-.8.1-1.5 0-2.5-.6-3.1-2.1-.5-1.5-1.1-2.9-1.5-4.4-.5-1.9.2-2.6 3.4-3.5 1.2-.4 1.7-1.1 1.1-2-.5-.8-1.2-1.5-1.7-2.3-.2-.5-.3-1.3-.1-1.7.7-1.1 1.5-2.1 2.5-2.9 1.7-1.4 2.3-3.1 1.9-5-.9-3.9 1.1-6.6 4.2-8.8 2.7-1.9 5.6-3.6 7.7-6 .2-.2.6-.3 1-.3.7 0 1.5.2 1.7.6 1.4 2.1 2.7 4.3 4.2 6.4 1.1 1.5 2.4 3 3.7 4.4 1.1 1.3 1.8 2.8.6 4.2-2.9 3.4-1.7 7.1-.9 10.6.2 1 1.7 2 2.8 2.6 1.1.6 2.6.6 3.9 1.1 2.8 1 5.1 3.8 4.9 6.5-.2 2.5-.3 5.3-.8 8zM371.9 123c1.1-.1 1.3-.4.5-.8-.1-.1-.3-.1-.4-.1-.2 0-.4 0-.6.1-.2.1-.3.3-.4.5.2.1.5.3.9.3-.1 0 0 0 0 0z"></path>
			<g class="map-st0 map-st0">
				<path class="map-st2" d="M389.4 148.8v15.7c0 .5-.1.9-.3 1.3v-15.7c.2-.4.3-.9.3-1.3z"></path>
				<path class="map-st3" d="M389.1 150.1v15.7c-.2.3-.4.7-.6 1v-15.7c.3-.3.5-.6.6-1z"></path>
				<path class="map-st4" d="M388.5 151.1v15.7c-.3.3-.6.6-1 .9V152c.4-.3.7-.6 1-.9z"></path>
				<path class="map-st1" d="M387.5 152v15.7c-.7.5-1.7.9-2.6 1-.8.1-1.7.2-2.5.2-1.9 0-3.7-.4-5.5-1.4-1.2-.7-2.2-1.6-3.4-2-2.9-.9-6.4-1.3-8.4-3.3-1.7-1.7-2.1-4.4-3.2-6.7-.3-.5-.9-1-1.4-1.3-1-.7-1.5-1.5-1.5-2.5V136c0 .9.5 1.7 1.5 2.5.5.4 1.1.8 1.4 1.3 1.1 2.2 1.5 5 3.2 6.7 2 2 5.4 2.4 8.4 3.3 1.3.4 2.3 1.3 3.4 2 1.7 1 3.5 1.4 5.5 1.4.8 0 1.7-.1 2.5-.2.9-.1 1.8-.5 2.6-1z"></path>
			</g>
			<path class="map-st5" d="M400.7 140.3c1 0 1.9.4 2.2 1.3.3.8.4 1.8.5 2.7 0 .8.4 1.1 1.3 1.2 1.5.1 2.7.6 3.5 1.7 1.5 1.7 2.9 3.4 4.3 5.2 1.3 1.6 1.5 3.4 1.5 5.3-.5 2.6-1.4 4.8-4.6 5.7-2.3.6-4.5 1.8-6.9 2-4.6.4-8.7 1.8-12.4 4.2-.2.1-.7.2-1.1.2-.4 0-.7-.1-.9-.2-.6-.6-1.4-1.6-1.3-2.3 1-3.9 2.3-7.7 3.6-11.5 1.2-3.5 2.6-7 4.1-10.5.9-2.1 2.3-3.8 4.8-4.6.6-.3 1-.4 1.4-.4z"></path>
			<g class="map-st0 map-st0">
				<path class="map-st2" d="M414.1 157.6v15.7c-.2.9-.4 1.7-.7 2.5V160c.3-.7.5-1.5.7-2.4z"></path>
				<path class="map-st3" d="M413.3 160v15.7c-.2.5-.5 1-.9 1.4v-15.7c.4-.4.7-.8.9-1.4z"></path>
				<path class="map-st4" d="M412.5 161.4v15.7c-.3.3-.6.6-1 .9v-15.7c.4-.2.7-.5 1-.9z"></path>
				<path class="map-st1" d="M411.5 162.3V178c-.5.4-1.2.7-2 .9-2.3.6-4.5 1.8-6.9 2-4.6.4-8.7 1.8-12.4 4.2-.2.1-.7.2-1.1.2-.4 0-.7-.1-.9-.2-.6-.6-1.3-1.4-1.3-2.1v-15.7c0 .6.7 1.5 1.3 2.1.1.1.5.2.9.2s.8-.1 1.1-.2c3.7-2.4 7.8-3.7 12.4-4.2 2.4-.2 4.6-1.4 6.9-2 .8-.2 1.4-.5 2-.9z"></path>
			</g>
		</g>
		<g class="map-st0">
			<path class="map-st5" d="M209.6 100.3c1 0 1.8.4 2.3 1.1.2.3.2.6.3.9-.4 1.4-1.9 2.3-3.6 2.3-.4 0-.8-.1-1.3-.2s-1-.8-1.1-1.3c-.3-1.3.5-2.2 2.1-2.6.5-.1 1-.2 1.3-.2z"></path>
			<g class="map-st0 map-st0">
				<path class="map-st2" d="M212.2 102.3V118c0 .1-.1.3-.1.4v-15.7c0-.1 0-.3.1-.4z"></path>
				<path class="map-st3" d="M212 102.7v15.7c-.1.2-.2.4-.4.6v-15.7c.2-.1.3-.4.4-.6z"></path>
				<path class="map-st4" d="M211.6 103.3V119l-.6.6v-15.7c.2-.1.4-.3.6-.6z"></path>
				<path class="map-st1" d="M211 103.9v15.7c-.7.4-1.5.7-2.4.7-.4 0-.8-.1-1.3-.2s-1-.8-1.1-1.3v-16.2.5c.1.5.6 1.2 1.1 1.3.4.1.8.2 1.3.2.9 0 1.7-.2 2.4-.7z"></path>
			</g>
		</g>
		<g class="map-st0">
			<path class="map-st5" d="M229.2 104.5c.5 0 1 0 1.5.1.6.1 1.5.8 1.4 1.1-.1.8-.5 1.7-1.1 2.3-.3.3-.8.4-1.2.4-.6 0-1.2-.2-1.6-.5-.8-.5-1.3-1.3-1.9-2 .6-.5.9-1.2 1.4-1.3.4 0 .9-.1 1.5-.1z"></path>
			<g class="map-st0 map-st0">
				<path class="map-st2" d="M232.1 105.8v15.7l-.3 1.2V107l.3-1.2z"></path>
				<path class="map-st3" d="M231.7 107v15.7c-.1.3-.3.6-.5.8v-15.7c.2-.2.4-.5.5-.8z"></path>
				<path class="map-st4" d="M231.2 107.8v15.7l-.3.3s-.1.1-.2.1v-15.7c.1 0 .1-.1.2-.1l.3-.3z"></path>
				<path class="map-st1" d="M230.8 108.2v15.7c-.3.2-.7.3-1.1.3-.6 0-1.2-.2-1.6-.5-.8-.5-1.3-1.3-1.9-2V106c.6.7 1.1 1.5 1.9 2 .5.3 1.1.5 1.6.5.4 0 .8-.1 1.1-.3z"></path>
			</g>
		</g>
		<g class="map-st0">
			<path class="map-st1" d="M239.5 127.4c-.3.6-.6 1.2-1.1 1.7-.4.5-1 1-1.6 1.4-1.3.9-3.1 1.6-5.3 2-.3 0-.5.1-.8.1-.8 0-1.5-.1-2.3-.3-.3-.1-.6-.1-.9-.1-.6 0-1.1.2-1.6.5-.2.2-.4.3-.6.6-.1.1-.2.3-.3.4-.9 1.3-1.8 2.5-2.7 3.7v-14.5c0 .2 0 .5-.1.7-.3 1.1-.9 2.2-1.3 3.3-.5.1-.9.1-1.4.1-1.2 0-2.3-.3-3.1-1.3-.4-.5-.7-1-.7-1.5v14.7c-.6-.1-1.2-.2-1.8-.4-1.2-.2-1.7-1.1-1.8-2v-.8 16.5c0 .9.5 1.8 1.8 2 1.4.3 2.7.5 4 .8.4.1.8.2 1.2.2.7 0 1.3-.2 1.8-.5.2-.1.4-.3.6-.5l.1-.1c1.2-1.5 2.3-3.1 3.4-4.6.1-.2.2-.3.3-.4l.6-.6c.4-.3 1-.5 1.6-.5.3 0 .6 0 .9.1.7.1 1.5.3 2.3.3.3 0 .5 0 .8-.1 2.2-.4 3.9-1 5.3-2 .6-.4 1.2-.9 1.6-1.4.4-.5.8-1.1 1.1-1.7.4-.9.6-1.9.6-3v-15.7c0 1-.2 2-.6 2.9z"></path>
			<path class="map-st5" d="M221.4 121.3c1 .3 1.2 1.4.9 2.3-.3 1.1-.9 2.2-1.3 3.3-.5.1-.9.1-1.4.1-1.2 0-2.3-.3-3.1-1.3-.6-.7-1.1-1.6-.3-2.5.7-.7 1.3-1.5 2.2-1.8.5-.2 1-.3 1.6-.3.5 0 1 .1 1.4.2z"></path>
			<path class="map-st5" d="M220.9 127c0-.1.1-.1.1-.2h.1l-.2.2z"></path>
			<path class="map-st5" d="M236.5 118.9c.3 0 .6.1.8.2.9.4 1.7 1.1 2.2 1.8.5.8.5 1.8.5 2.7.4 4.2-2.2 7.9-8.5 8.9-.3 0-.5.1-.8.1-.8 0-1.5-.1-2.3-.3-.3-.1-.6-.1-.9-.1-1.1 0-1.9.5-2.5 1.5-1.1 1.6-2.2 3.1-3.4 4.6-.6.8-1.5 1.2-2.5 1.2-.4 0-.8-.1-1.2-.2-1.3-.3-2.7-.6-4-.8-1.2-.2-1.7-1.1-1.8-2 0-1.8.1-3.7.3-5.5.2-1.3 1.2-2.3 2.7-2.5 2-.3 4-.6 5.7-1.5v.1l.2-.2-.2.2c1.4 0 2.8.1 4.1.2.3 0 .6.2.9.2h.2c3-2 6.8-3.1 7.9-6.8.3-1.2 1.6-1.8 2.6-1.8z"></path>
		</g>
		<g class="map-st0">
			<g class="map-st0 map-st0">
				<path class="map-st2" d="M211.6 114v15.7c0 .2 0 .5-.1.7v-15.7c0-.2.1-.5.1-.7z"></path>
				<path class="map-st3" d="M211.4 114.7v15.7c0 .1-.1.1-.1.2l-.1.1V115l.1-.1c.1-.1.1-.2.1-.2z"></path>
				<path class="map-st4" d="M211.3 114.9v15.7c-.1.1-.2.2-.3.2v-15.7c.1-.1.2-.1.3-.2z"></path>
				<path class="map-st1" d="M211 115.1v15.7c-.4.3-.9.4-1.3.4v-15.7c.4 0 1-.1 1.3-.4z"></path>
			</g>
			<g class="map-st0 map-st0">
				<path class="map-st1" d="M209.7 115.6v15.7c-.6 0-1.3-.5-1.9-.6h-.3c-.5 0-.9.2-1.3.4v-15.7c.3-.2.8-.4 1.3-.4h.3c.6.1 1.2.6 1.9.6z"></path>
				<path class="map-st4" d="M206.1 115.3V131l-.3.3v-15.7l.3-.3z"></path>
				<path class="map-st3" d="M205.8 115.6v15.7c-.1.1-.1.2-.2.3v-15.7c.1-.1.1-.2.2-.3z"></path>
				<path class="map-st2" d="M205.6 115.9v15.7c0 .1-.1.2-.1.3v-15.7c.1-.1.1-.2.1-.3z"></path>
			</g>
			<path class="map-st0 map-st0 map-st1" d="M198.8 120.6v15.7c0-.1-.2-.5-.4-.6l-1.8-.9c-.5-.4-1.2-.7-1.5-1.3-.2-.3-.3-.7-.3-1.1v-15.7c0 .4.1.8.3 1.1.3.5.9.9 1.5 1.3s1.2.6 1.8.9c.2.1.4.5.4.6z"></path>
			<g class="map-st0 map-st0">
				<path class="map-st2" d="M210.5 128.5v15.7c0 .2 0 .4-.1.5V129c.1-.1.1-.3.1-.5z"></path>
				<path class="map-st3" d="M210.4 129.1v15.7c-.1.1-.1.2-.2.4v-15.7c.1-.2.2-.3.2-.4z"></path>
				<path class="map-st4" d="M210.2 129.4v15.7c-.1.2-.3.3-.6.5v-15.7c.2-.1.4-.3.6-.5z"></path>
				<path class="map-st1" d="M209.6 129.9v15.7c-.4.3-.9.5-1.6.8-.5.2-1.1.4-1.5.7v-15.7c.4-.3 1-.4 1.5-.7.7-.2 1.2-.5 1.6-.8z"></path>
				<path class="map-st4" d="M206.5 131.4v15.7c-.1.1-.2.2-.3.2v-15.7c.1 0 .2-.1.3-.2z"></path>
				<path class="map-st3" d="M206.3 131.7v15.7c-.1.1-.1.2-.2.3V132c0-.1.1-.2.2-.3z"></path>
				<path class="map-st2" d="M206.1 131.9v15.7c-.1.1-.1.3-.1.5v-15.7c0-.2 0-.3.1-.5z"></path>
			</g>
			<path class="map-st0 map-st0 map-st1" d="M199.9 134.2v15.7h-1.5c-.6 0-1.2-.1-1.7-.3-2.6-1.4-5.1-3-7.6-4.7-.2-.2-.4-.7-.4-1.1v-15.7c0 .4.2 1 .4 1.1 2.5 1.7 5 3.3 7.6 4.7.4.2 1 .3 1.7.3h1.5zM202 135.9v15.5c0-1-.9-1.5-2.1-1.5v-15.7c1.2 0 2 .5 2.1 1.5v.2z"></path>
			<path class="map-st0 map-st0 map-st1" d="M191.9 139.5v15.7h-.3c-2.9 0-4.4-2.1-6.4-3.5-.2-.1-.3-.5-.3-.7v-15.7c0 .2.1.6.3.7 2 1.4 3.5 3.5 6.4 3.5h.3z"></path>
			<path class="map-st5" d="M187.4 134.4c1.4 0 2.6.7 3.3 1.9.6 1 .9 2.1 1.3 3.1h-.3c-2.9 0-4.4-2.1-6.4-3.5-.2-.1-.4-.7-.3-.7.5-.3 1-.6 1.5-.7.3 0 .6-.1.9-.1zM192 139.5v0z"></path>
			<path class="map-st0 map-st0 map-st1" d="M192 139.6v15.7c0-.1 0-.1-.1-.2v-15.7c.1.1.1.2.1.2z"></path>
			<path class="map-st5" d="M203.7 108.7c1.4 0 3 1.1 5.2 2.7.8.6 1.7 1.1 2.4 1.8.3.4.3 1.2 0 1.6-.3.4-1.1.7-1.7.7-.6 0-1.3-.5-1.9-.6h-.3c-1 0-2 .7-1.8 1.4.4 1.5.3 3.5 1.4 4.3 2.3 1.9 2.1 4.5 3.2 6.7.8 1.7.3 2.3-2.1 3.5-.9.4-2 .6-2 1.7 0 .9.1 1.9.7 2.7.7 1 1.9 1.7 2.9 2.6 1.2 1.1 1.5 2.2.8 3.2s-1.5 2-2.3 3c-.4.5-.8 1.2-1.3 1.3-2.6.8-5.2 1.4-7.5 2.1-.9-.5-1.7-.7-2-1.2-1.4-2.1-1-4.5.8-5.8 1.1-.7 2.4-1.2 3.3-2.1.6-.6.8-1.7.7-2.6 0-1-.9-1.5-2.1-1.5h-1.5c-.6 0-1.2-.1-1.7-.3-2.6-1.4-5.1-3-7.6-4.7-.4-.3-.6-1.3-.3-1.6 1.1-1.2 1.7-2.4 1.3-4.1-.3-1.2.6-2.1 1.8-2.1.2 0 .4 0 .6.1 1.1.3 2.2.9 3.3.9.5 0 1-.1 1.5-.4.5-.3 1-.9 1.3-1.3.1-.1-.2-.5-.4-.7l-1.8-.9c-.5-.4-1.2-.7-1.5-1.3-.3-.5-.4-1.3-.1-1.6 1.4-1.4 3.3-2.4 4.3-3.9 1.7-2.5 3-3.6 4.4-3.6z"></path>
			<g class="map-st0 map-st0">
				<path class="map-st2" d="M210.7 139.7v15.7c0 .3-.1.5-.2.8v-15.7c.1-.3.2-.5.2-.8z"></path>
				<path class="map-st3" d="M210.5 140.5v15.7c-.1.1-.1.3-.2.4-.7 1-1.5 2-2.3 3-.2.2-.4.5-.6.8v-15.7c.2-.3.4-.5.6-.8.8-1 1.6-2 2.3-3 .1-.2.2-.3.2-.4z"></path>
				<path class="map-st4" d="M207.4 144.7v15.7c-.1.2-.3.3-.4.4v-15.7l.4-.4z"></path>
				<path class="map-st1" d="M206.9 145.1v15.7c-.1.1-.2.1-.3.2-2.6.8-5.2 1.4-7.5 2.1v-15.7c2.3-.6 5-1.3 7.5-2.1.1-.1.2-.1.3-.2z"></path>
			</g>
			<path class="map-st0 map-st0 map-st1" d="M199.1 147.3V163c-.9-.5-1.7-.7-2-1.2-.6-.8-.9-1.8-.9-2.6v-15.7c0 .9.3 1.8.9 2.6.3.5 1.1.7 2 1.2z"></path>
			<path class="map-st5" d="M212.4 146.5c.7 0 1.6.5 1.9 1.1-.2.5-.3 1.2-.7 1.5-.4.3-.8.4-1.2.4-.6 0-1.1-.3-1.4-.7-.4-.7.1-1.9.9-2.2.2-.1.3-.1.5-.1z"></path>
			<g class="map-st0 map-st0">
				<path class="map-st3" d="M214.3 147.7v15.7-15.7z"></path>
				<path class="map-st2" d="M214.3 147.7v15.7c-.1.3-.2.7-.4 1v-15.7c.2-.3.3-.7.4-1z"></path>
				<path class="map-st3" d="M214 148.7v15.7c0 .1-.1.2-.2.3V149c.1-.1.1-.2.2-.3z"></path>
				<path class="map-st4" d="M213.8 149v15.7l-.1.1v-15.7s0-.1.1-.1z"></path>
				<path class="map-st1" d="M213.6 149.1v15.7c-.4.3-.8.4-1.2.4-.6 0-1.1-.3-1.4-.7-.1-.2-.2-.4-.2-.6v-15.7c0 .2 0 .4.2.6.3.4.8.7 1.4.7.4 0 .8-.1 1.2-.4z"></path>
			</g>
		</g>
		<g class="map-st0">
			<path class="map-st5" d="M172.1 119.5c.2 0 .4 0 .6.1.7.3 1 .8.6 1.3-.3.4-1 .5-1.5.7-.2-.5-.6-1-.5-1.5 0-.4.3-.6.8-.6z"></path>
			<g class="map-st0 map-st0">
				<path class="map-st2" d="M173.5 120.4v15.7c0 .1 0 .2-.1.3v-15.7c.1-.1.1-.2.1-.3z"></path>
				<path class="map-st3" d="M173.4 120.7v15.7c0 .1-.1.1-.1.2v-15.7c.1 0 .1-.1.1-.2z"></path>
				<path class="map-st4" d="M173.3 120.9v15.7l-.2.2v-15.7c.1 0 .1-.1.2-.2z"></path>
				<path class="map-st1" d="M173.1 121.1v15.7c-.4.2-.9.4-1.3.5v-15.7c.4-.1.9-.3 1.3-.5z"></path>
			</g>
			<path class="map-st0 map-st0 map-st1" d="M171.8 121.7v15.7c-.2-.5-.5-.9-.5-1.4v-15.7c-.1.4.3.9.5 1.4z"></path>
		</g>
		<g class="map-st0">
			<path class="map-st5" d="M164.7 146.4l.1.2h-.1v-.2c-.1 0 0 0 0 0z"></path>
			<path class="map-st0 map-st0 map-st4" d="M164.7 130.7v15.7l-.1.1.1-15.8c-.1.1 0 0 0 0z"></path>
			<path class="map-st6" d="M164.8 130.9v15.7l-.1-.2v-15.7z"></path>
			<path class="map-st0 map-st0 map-st1" d="M165.2 132.8v15.7c0-.5-.2-1.2-.5-1.9v-15.7c.4.7.5 1.4.5 1.9z"></path>
			<path class="map-st5" d="M158.1 127.8c.5 0 1.1.1 1.6.1 2.2.2 3.4 1.8 4.9 2.9-.4.5-.8 1.1-1.3 1.3-1.6.4-3.4.3-4.8 1-1.5.7-2.6 2-3.9 3-.8.6-1.6.8-2.5.8-1.2 0-2.6-.5-4.1-1.6-.8-.6-.9-2.1-.1-2.4 3.2-1.3 6.1-2.8 8.9-4.8.3-.3.8-.3 1.3-.3z"></path>
			<g class="map-st0 map-st0">
				<path class="map-st4" d="M164.6 130.8v15.7l-.1.1.1-15.8z"></path>
				<path class="map-st3" d="M164.5 130.9v15.7c-.2.2-.3.4-.5.7v-15.7c.2-.3.4-.5.5-.7z"></path>
				<path class="map-st4" d="M164 131.5v15.7l-.4.4v-15.7c.1-.1.3-.2.4-.4z"></path>
				<path class="map-st1" d="M163.6 131.9v15.7c-.1.1-.2.1-.3.1-1.6.4-3.4.3-4.8 1-.3.2-.6.3-.9.5v-15.7c.3-.2.6-.4.9-.5 1.4-.6 3.2-.5 4.8-1 .1 0 .2 0 .3-.1z"></path>
				<path class="map-st4" d="M157.6 133.6v15.7c-1.1.7-2 1.7-3 2.5 0 0-.1 0-.1.1v-15.7s.1 0 .1-.1c1-.8 1.9-1.8 3-2.5z"></path>
				<path class="map-st1" d="M154.5 136.1v15.7c-.8.5-1.6.8-2.4.8-1.2 0-2.6-.5-4.1-1.6-.4-.3-.7-.9-.7-1.4v-15.7c0 .5.2 1.1.7 1.4 1.5 1.1 2.8 1.6 4.1 1.6.8 0 1.6-.3 2.4-.8z"></path>
			</g>
			<path class="map-st5" d="M170.7 125.5c.7 0 1.5.2 1.9.5 1.5 1.2 2.9 2.6 4.1 4.1.6.7.7 1.8 0 2.5-1.1 1.1-2.2 2.4-3.6 3.2-1.8.9-3.2 2.1-4.7 3.4-1.8 1.5-3 3-3.9 5-.6 1.2-1.9 1.9-3.2 1.9-.9 0-1.9-.3-2.8-.9-1.1-.7-2.1-1.5-3.1-2.3-.6-.5-.6-2 0-2.5 1.3-1 2.6-1.9 3.4-3.3 1-1.8 2.9-2.3 5.1-2.6 1.7-.3 1.9-1.4 1.1-3.5.3-2.7 2.3-4.3 5-5.2 0-.3.3-.3.7-.3z"></path>
			<g class="map-st0 map-st0">
				<path class="map-st2" d="M177.1 131.3V147c0 .2 0 .5-.1.7V132c0-.2.1-.4.1-.7z"></path>
				<path class="map-st3" d="M176.9 132v15.7c-.1.2-.2.3-.3.4v-15.7c.2-.1.3-.2.3-.4z"></path>
				<path class="map-st4" d="M176.7 132.5v15.7l-.1.1c-.9.9-1.8 2-2.9 2.8v-15.7c1.1-.8 2-1.8 2.9-2.8 0 0 0-.1.1-.1z"></path>
				<path class="map-st1" d="M173.6 135.4v15.7c-.2.1-.4.3-.7.4-.6.3-1.2.7-1.7 1v-15.7c.5-.4 1.1-.7 1.7-1 .3-.2.5-.3.7-.4z"></path>
				<path class="map-st4" d="M171.2 136.8v15.7c-1 .7-2 1.5-3 2.3-.7.6-1.4 1.2-1.9 1.9V141c.6-.6 1.2-1.3 1.9-1.9 1-.8 2-1.6 3-2.3z"></path>
				<path class="map-st3" d="M166.3 141v15.7c-.8.9-1.4 2-2 3.2-.1.3-.3.5-.4.7v-15.7c.2-.2.3-.4.4-.7.6-1.2 1.2-2.3 2-3.2z"></path>
				<path class="map-st4" d="M163.9 144.8v15.7c-.2.2-.4.4-.6.5v-15.7c.2-.1.4-.2.6-.5z"></path>
				<path class="map-st1" d="M163.3 145.4v15.7c-.6.4-1.4.6-2.2.6-.9 0-1.9-.3-2.8-.9-1.1-.7-2.1-1.5-3.1-2.3-.3-.2-.4-.7-.4-1.2v-15.7c0 .5.1 1 .4 1.2 1 .8 2.1 1.6 3.1 2.3.8.6 1.8.9 2.8.9.8 0 1.6-.2 2.2-.6z"></path>
			</g>
			<path class="map-st0 map-st0 map-st2" d="M170.8 145.9v16.9-15.7-1.2z"></path>
			<path class="map-st5" d="M170.7 144.1c.2 1 .1 2.1.1 3.2-1-.6-2-1.2-2.8-2-.2-.2.1-1 .3-1.5.1-.2.5-.4.7-.4h.1c.6.2 1.5.4 1.6.7z"></path>
			<path class="map-st0 map-st0 map-st1" d="M170.8 147.3V163c-1-.6-2-1.2-2.8-2-.1 0-.1-.1-.1-.2V145c0 .1 0 .2.1.2.8.8 1.8 1.4 2.8 2.1z"></path>
		</g>
		<g class="map-st0">
			<path class="map-st5" d="M45.1 412.1c2.8 0 5.3 1.1 8 2.2 1.8.8 2.6 2.2 2.6 3.9.1 2-2 4.8-3.8 5.2-2.4.5-4.8.8-6 1-4.9-.3-8.6-.4-11.9-2.3-1.3-.8-2.7-2.9-2-4.2.5-1 1-2.2 1.9-2.6 2.2-1 4.7-1.3 6.9-2.3 1.5-.6 2.9-.9 4.3-.9z"></path>
			<g class="map-st0 map-st0">
				<path class="map-st2" d="M55.7 418.4v16.5c0 .6-.2 1.2-.4 1.8v-16.5c.2-.6.4-1.3.4-1.8z"></path>
				<path class="map-st3" d="M55.2 420.2v16.5c-.3.6-.7 1.2-1.1 1.7v-16.5c.5-.5.9-1.1 1.1-1.7z"></path>
				<path class="map-st4" d="M54.1 421.9v16.5c-.4.4-.7.8-1.1 1V423c.4-.3.8-.7 1.1-1.1z"></path>
				<path class="map-st1" d="M53 423v16.5c-.4.3-.7.4-1.1.5-2.4.5-4.8.8-6 1v-16.5c1.2-.2 3.6-.5 6-1 .4-.1.7-.3 1.1-.5z"></path>
			</g>
			<path class="map-st0 map-st0 map-st1" d="M45.9 424.5V441c-4.9-.3-8.6-.4-11.9-2.3-1.1-.6-2.2-2.2-2.2-3.4v-16.5c0 1.2 1.1 2.8 2.2 3.4 3.3 1.9 6.9 2 11.9 2.3z"></path>
		</g>
		<g class="map-st0">
			<path class="map-st0 map-st0 map-st2" d="M186.9 142.7V158.6v-15.7-.2z"></path>
			<path class="map-st5" d="M184.2 139.5c1.3 0 2.8 2.1 2.7 3.3-.1.3-.2.6-.4.8-.8 1-1.8 1.5-2.8 1.5-.8 0-1.6-.3-2.4-.8-1.5-.9-1.5-2.2.3-3.8.6-.4 1.6-.9 2.6-1z"></path>
			<g class="map-st0 map-st0">
				<path class="map-st3" d="M186.9 142.8v15.7c0 .1-.1.1-.1.2V143c.1-.1.1-.1.1-.2z"></path>
				<path class="map-st2" d="M186.8 143v15.7c0 .1-.1.1-.1.2v-15.7c.1-.1.1-.1.1-.2z"></path>
				<path class="map-st3" d="M186.7 143.2v15.7c-.1.1-.1.3-.2.4l-.2.2v-15.7l.2-.2c.1-.1.2-.2.2-.4z"></path>
				<path class="map-st4" d="M186.3 143.8v15.7c-.3.3-.5.6-.8.8v-15.7c.3-.2.6-.5.8-.8z"></path>
				<path class="map-st1" d="M185.5 144.6v15.7c-.6.4-1.2.6-1.9.6-.8 0-1.6-.3-2.4-.8-.7-.4-1.1-.9-1.1-1.5v-15.7c0 .6.4 1.1 1.1 1.5.9.5 1.7.8 2.4.8s1.4-.2 1.9-.6z"></path>
			</g>
		</g>
		<g class="map-st0">
			<path class="map-st5" d="M175.1 147.6c.6 1.2-.3 2.7-1.5 2.7h-.2c-1 0-1.7-.5-2.2-1.3-.2-.5-.3-1.1-.4-1.6.6-.2 1.1-.4 1.7-.5.3-.1.7-.1 1-.1.8-.1 1.3.2 1.6.8z"></path>
			<g class="map-st0 map-st0">
				<path class="map-st2" d="M175.3 148.4v15.7c0 .3-.1.6-.2.8v-15.7c.1-.2.2-.5.2-.8z"></path>
				<path class="map-st3" d="M175.1 149.3V165c-.1.2-.2.4-.3.5v-15.7c.1-.2.2-.4.3-.5z"></path>
				<path class="map-st4" d="M174.8 149.8v15.7c-.1.1-.2.2-.4.3v-15.7c.2-.1.3-.2.4-.3z"></path>
				<path class="map-st1" d="M174.4 150.1v15.7c-.2.2-.5.3-.8.3h-.2c-1 0-1.7-.5-2.2-1.3-.2-.5-.3-1.1-.4-1.6v-15.7c.1.5.1 1.1.4 1.6.4.8 1.1 1.3 2.2 1.3h.2c.3 0 .6-.1.8-.3z"></path>
			</g>
		</g>
		<g class="map-st0">
			<path class="map-st5" d="M170.8 162.9c.1 0 .1.1.2.1l-.2.1v-.2z"></path>
			<path class="map-st0 map-st0 map-st1" d="M170.9 147.4V163c-.1 0-.1-.1-.2-.1v-15.7c.1.1.2.1.2.2z"></path>
			<path class="map-st5" d="M170.8 147.5l.2-.1v.1c-.1-.1-.2 0-.2 0z"></path>
			<path class="map-st0 map-st0 map-st1" d="M171 147.4v15.7c-.1 0-.1 0-.2.1v-15.7s.1-.1.2-.1z"></path>
			<path class="map-st6" d="M170.8 147.5z"></path>
			<path class="map-st0 map-st0 map-st1" d="M170.8 147.5v15.7-15.7z"></path>
		</g>
		<g class="map-st0">
			<path class="map-st5" d="M453.4 238.7l-.2.2c0-.1 0-.1.1-.2h.1z"></path>
			<path class="map-st5" d="M453.1 238.9l.2-.2c0 .1-.1.1-.1.2h-.1zM584.1 250.6c0-.1.1-.1.1-.2 0 0 0 .1.1.1l-.2.1zM584.1 250.6l.2-.1v.1c-.1-.1-.1 0-.2 0z"></path>
			<g class="map-st0 map-st0">
				<path class="map-st2" d="M425.9 175.6v15.7c0 .1 0 .3-.1.4l-.3.9v-15.7l.3-.9c.1-.1.1-.3.1-.4z"></path>
				<path class="map-st3" d="M425.5 176.8v15.7c-.3.8-.8 1.5-1.1 2.3v-15.7c.3-.7.7-1.5 1.1-2.3z"></path>
				<path class="map-st2" d="M424.4 179.1v15.7c0 .1-.1.1-.1.2-.2.4-.2.7-.2 1v-15.7c0-.3.1-.6.2-1 0 0 0-.1.1-.2z"></path>
			</g>
			<path class="map-st0 map-st0 map-st2" d="M431.8 185.4v15.7c0 .6-.2 1.4-.4 2.3-.2.5-.5 1.1-.5 1.6v-15.7c0-.5.3-1 .5-1.6.3-1 .4-1.7.4-2.3zM461.8 204.7v15.7c0 .8-.1 1.6-.3 2.4-.1.5-.2 1-.2 1.5v-15.7c0-.5 0-1 .2-1.5.2-.8.3-1.6.3-2.4z"></path>
			<path class="map-st5" d="M562.4 206.3h.2c.5.1.7.8 1.2 1.4-.3.7-.5 1.5-1.1 2.1-.1.1-.4.2-.8.2-.3 0-.7 0-.9-.1-.2 0-.6-.4-.6-.6.1-.8.1-1.7.5-2.5.2-.2 1-.5 1.5-.5zM610.8 209.6c2.1.2 4.1.3 6.1.6 1 .1 2.1.4 2.9.9 2.8 2 6.6 1.6 9.4 3.5 1.5 1 1.7 3.7.1 4.8-1.9 1.3-3.9 2.3-6.3 2.3h-.3c-1.3-.1-2.9-.1-4-.8-2.8-1.7-5.5-3.7-8-5.7-1.4-1.1-1.6-2.7-.9-4.2.2-.5.7-1 1-1.4zM575.8 198c1.7 0 2.9 1.7 4.1 2.8.7.6 1.4 1.3 2.2 1.9.3.2.6.3.9.3.5 0 1.1-.3 1.5-.9.4-.5.6-1.1 1.1-1.5.9-.9 1.9-1.4 2.9-1.4.6 0 1.1.1 1.6.5.6.4 1.1.8 1.6 1.2 1.2 1.1 2.6 2 4.4 2.1 1.8.1 3.3.7 4.8 1.6 4.4 2.8 4.6 3.2 3.1 7.5-.7 2.2-1.8 3.9-4 5-1.2.6-2.3 1.5-3.5 2-1.1.4-2.2.7-3.4.7-1 0-2-.2-3.2-.6-3.6.1-7.6.4-11.2 2.6-.7.4-1.5.6-2.4.6-1.3 0-2.6-.4-3.3-1.2-1.9-2.1-3.7-4.4-5.5-6.6-.2-.2-.3-.6-.3-.9-.2-4-.2-8.1 2.3-11.6 1.2-1.7 3.3-3.3 5.4-4.1h.9z"></path>
			<g class="map-st0 map-st0">
				<path class="map-st3" d="M431.2 239.5v15.7l-.6.9v-15.7l.6-.9z"></path>
				<path class="map-st2" d="M430.6 240.5v15.7c-.2.3-.3.7-.4 1.1-.1.1-.1.3-.1.5V242c0-.2 0-.3.1-.5.1-.3.3-.7.4-1z"></path>
			</g>
			<path class="map-st5" d="M584.1 228.6c1.3.1 2.6 1.4 2.2 2.3-.6 1.3-1.3 2.5-2 3.7-.7-.9-1.6-1.8-2.1-2.8-.3-.5-.1-1.1-.1-1.7 0-.7 1.1-1.5 2-1.5-.1 0 0 0 0 0z"></path>
			<g class="map-st0 map-st0">
				<path class="map-st2" d="M586.4 230.6v15.7c0 .1 0 .3-.1.4V231c0-.2.1-.3.1-.4z"></path>
				<path class="map-st3" d="M586.3 231v15.7c-.6 1.3-1.3 2.5-2 3.7v-15.7c.6-1.3 1.4-2.4 2-3.7z"></path>
			</g>
			<path class="map-st0 map-st0 map-st2" d="M483.6 240v16c-.1.3-.1.7-.1 1v-15.7c0-.3 0-.6.1-1v-.3z"></path>
			<g class="map-st0 map-st0">
				<path class="map-st2" d="M597.5 241v15.7c0 .4-.1.9-.3 1.3v-15.7c.2-.4.3-.8.3-1.3z"></path>
				<path class="map-st3" d="M597.2 242.3V258v-15.7c0 .1 0 0 0 0z"></path>
			</g>
			<path class="map-st0 map-st0 map-st2" d="M267.9 243v15.7c0 .2 0 .4-.1.6v-15.7c.1-.2.1-.4.1-.6z"></path>
			<path class="map-st3" d="M597.2 242.4V258c-.1.2-.3.5-.5.8v-15.7c.2-.2.4-.5.5-.7z"></path>
			<g class="map-st0 map-st0">
				<path class="map-st2" d="M267.8 243.6v15.7s0 .1-.1.1v-15.7s.1 0 .1-.1z"></path>
				<path class="map-st3" d="M267.7 243.8v15.7c-.2.5-.7 1-1 1.4-.4.6-.7.9-.8 1.2v-15.7c.1-.3.4-.7.8-1.2s.8-.9 1-1.4z"></path>
				<path class="map-st2" d="M266 246.4v15.7c-.1.1-.1.2-.1.3v-15.7s0-.1.1-.3z"></path>
			</g>
			<path class="map-st5" d="M302.9 246.5c.9 0 1.6.7 1.7 1.6.1 1-.3 1.8-1.2 2.3-.1.1-.3.1-.5.1-1 0-2.3-1.1-2.3-2.1.2-1 .9-1.6 2-1.9h.3z"></path>
			<g class="map-st0 map-st0">
				<path class="map-st2" d="M304.5 248.4v15.7c0 .4-.1.7-.2 1v-15.7c.2-.3.2-.6.2-1z"></path>
				<path class="map-st3" d="M304.3 249.4v15.7c-.1.2-.2.3-.3.5v-15.7c.2-.2.3-.3.3-.5z"></path>
			</g>
			<path class="map-st0 map-st0 map-st2" d="M533.1 249v16.5c0 .4-.1.8-.1 1.1V251c0-.4 0-.8.1-1.1v-.9zM286.8 254.9v16.5c-.1 1.9-.6 3.7-.6 5.5v.4-15.7-.4c0-1.8.5-3.7.6-5.5-.1-.3 0-.5 0-.8z"></path>
			<path class="map-st0 map-st0 map-st2" d="M533.2 255.2V271.1c0 1.2-.2 2.4-.5 3.6-.4 1.3-.6 2.6-.6 3.8v-15.7c0-1.2.2-2.5.6-3.8.3-1.2.5-2.4.5-3.6v-.2zM274 254.2v15.7c0 .7-.1 1.4-.2 2.2-.4 2.7-1.3 5.4-2.2 8.1-.3.9-.6 1.8-.6 2.7v-15.7c0-.9.3-1.8.6-2.7.9-2.7 1.8-5.3 2.2-8.1.2-.7.2-1.5.2-2.2z"></path>
			<path class="map-st5" d="M767.6 265.3c1.4 0 2.8.3 4 .8 1.6.7 2.6 1.9 3.3 3.4.4.9-.3 2.8-1.3 3.2-1.3.5-2.5.9-3.8 1.3-1 .3-2 .5-3 .5-2.4.2-4.7.3-6 .3h-.1c-2 0-3.2-1.9-2.8-2.8 1.4-4.3 5.6-6.7 9.7-6.7z"></path>
			<g class="map-st0 map-st0">
				<path class="map-st3" d="M318.3 271v15.7c-.1.1-.2.3-.3.5v-15.7c.1-.2.2-.4.3-.5z"></path>
				<path class="map-st2" d="M318 271.4v15.7c0 .1-.1.2-.1.2-.2 1.2-.2 2.4-.3 4.7v-15.7c.1-2.3.1-3.6.3-4.7 0 0 0-.1.1-.2z"></path>
			</g>
			<path class="map-st0 map-st0 map-st2" d="M317.6 276.4v17.2-15.7-1.5zM274 275.9v15.7c0 .6-.1 1.3-.2 1.9-.3 2-.4 4-.4 6v-15.7c0-2 .1-4 .4-6 .2-.6.2-1.3.2-1.9zM673.1 282v16.3c0 .7-.1 1.4-.1 2v-15.7c0-.7 0-1.4.1-2v-.6z"></path>
			<g class="map-st0 map-st0">
				<path class="map-st2" d="M715.4 287.9v15.7c0 .2 0 .4-.1.6v-15.7c.1-.2.1-.4.1-.6z"></path>
				<path class="map-st3" d="M715.3 288.5v15.7c0 .1-.1.2-.2.2v-15.7c.1 0 .2-.1.2-.2zM711.8 291.5v15.7c-.1.1-.2.3-.3.4v-15.7c0-.1.1-.2.3-.4z"></path>
				<path class="map-st2" d="M711.5 291.9v15.7c-.1.1-.1.3-.1.4v-15.7c0-.1 0-.2.1-.4z"></path>
			</g>
			<path class="map-st0 map-st0 map-st2" d="M273.5 289.5v15.7c0 1 0 2.1-.1 3.1v1.1-15.7-1.1c.1-1 .1-2.1.1-3.1z"></path>
			<path class="map-st5" d="M165.3 290.9c.8 0 1.6.2 2.4.6 1.5.8 2.9 1.9 2.7 3.6-.3 2.4-3.8 4.6-6.5 4.6h-.3c-1-.1-2.6-1.4-2.8-2.4-.5-1.9.1-3.6 1.4-5.1.9-.8 1.9-1.3 3.1-1.3z"></path>
			<g class="map-st0 map-st0">
				<path class="map-st3" d="M293.8 298.6v15.7c-.2.3-.5.7-.6 1v-15.7c.1-.4.5-.7.6-1z"></path>
				<path class="map-st2" d="M293.2 299.5v15.7c0 .1-.1.1-.1.2v-15.7s.1-.1.1-.2z"></path>
			</g>
			<g class="map-st0 map-st0">
				<path class="map-st2" d="M154 307.8v15.7c0 .3-.1.6-.2.9v-15.7c.1-.3.2-.6.2-.9z"></path>
				<path class="map-st3" d="M153.8 308.7v15.7c-.1.2-.2.4-.4.6v-15.7c.2-.2.3-.4.4-.6zM148.7 312.3V328c-.1.2-.2.3-.3.5v-15.7c.1-.2.2-.4.3-.5z"></path>
				<path class="map-st2" d="M148.4 312.8v15.7c-.1.3-.2.6-.2.9v-15.7c0-.3 0-.6.2-.9z"></path>
			</g>
			<g class="map-st0 map-st0">
				<path class="map-st2" d="M277 302.4v15.7c0 .2 0 .3-.1.4-1 2.7-.9 5.8-2.1 8.5v-15.7c1.2-2.7 1.2-5.7 2.1-8.5.1-.1.1-.2.1-.4z"></path>
				<path class="map-st3" d="M274.8 311.3V327c-.3.8-.8 1.5-1.4 2.2v-15.7c.7-.7 1.1-1.5 1.4-2.2z"></path>
			</g>
			<path class="map-st0 map-st0 map-st2" d="M788.3 318.1v16-15.7-.3z"></path>
			<g class="map-st0 map-st0">
				<path class="map-st2" d="M272.9 314.1v15.7c0 .1-.1.2-.1.3v-15.7c0-.1 0-.2.1-.3z"></path>
				<path class="map-st3" d="M272.7 314.4v15.7c-.5 1.1-1.1 2-1.8 2.9v-15.7c.7-.8 1.3-1.8 1.8-2.9z"></path>
			</g>
			<path class="map-st0 map-st0 map-st2" d="M96.7 322.7v15.7c0 .3-.1.7-.1.9v-15.7c.1-.2.1-.5.1-.9z"></path>
			<g class="map-st0 map-st0">
				<path class="map-st2" d="M129.8 316.7v15.7c0 1.3-.3 2.6-.8 3.8v-15.7c.5-1.2.8-2.5.8-3.8z"></path>
				<path class="map-st3" d="M129 320.5v15.7c-.4.9-.9 1.7-1.6 2.5V323c.7-.8 1.2-1.6 1.6-2.5z"></path>
			</g>
			<path class="map-st0 map-st0 map-st2" d="M100.1 331.2V347c0 1.3-.1 2.7-.1 4.1v-15.7c0-1.5.1-2.8.1-4.2z"></path>
			<g class="map-st0 map-st0">
				<path class="map-st2" d="M649.7 387.4v15.7c0 .2 0 .4-.1.5V388c.1-.2.1-.4.1-.6z"></path>
				<path class="map-st3" d="M649.6 388v15.7c-.1.2-.2.3-.3.5v-15.7c.1-.2.2-.4.3-.5z"></path>
			</g>
			<path class="map-st5" d="M692.2 389c.1 0 .1 0 0 0 .5.4.8.9 1.2 1.3-.3.5-.5 1.1-1 1.4-.3.2-.8.4-1.2.4-.7 0-1.3-.3-1.3-.7 0-.5.4-1.1.6-1.6.1-.2.5-.4.8-.6.3 0 .7-.2.9-.2z"></path>
			<g class="map-st0 map-st0">
				<path class="map-st2" d="M687.2 400.7v15.7c0 .2 0 .3-.1.5v-15.7c.1-.2.1-.3.1-.5z"></path>
				<path class="map-st3" d="M687.1 401.2v15.7c0 .1-.1.1-.1.2-.1.2-.3.5-.4.7v-15.7c.1-.2.2-.5.4-.7.1-.1.1-.2.1-.2z"></path>
				<path class="map-st2" d="M686.6 402.1v15.7c-.3.7-.4 1.3-.4 1.9V404c0-.6.1-1.3.4-1.9z"></path>
			</g>
			<g class="map-st0 map-st0">
				<path class="map-st3" d="M222.4 428.2v15.7c-.1.1-.1.2-.2.3v-15.7c0-.1.1-.2.2-.3z"></path>
				<path class="map-st2" d="M222.2 428.5v15.7c-.1.2-.1.4-.1.7v-15.7c0-.3 0-.5.1-.7z"></path>
			</g>
			<g class="map-st0 map-st0">
				<path class="map-st2" d="M223.1 433v15.7c0 .3 0 .6-.1.8v-15.7c.1-.2.1-.5.1-.8z"></path>
				<path class="map-st3" d="M223 433.8v15.7s0 .1-.1.1l.1-15.8c-.1 0 0 0 0 0z"></path>
			</g>
			<path class="map-st0 map-st0 map-st2" d="M596.7 435.7v15.7c0 .8-.1 1.7-.3 2.6-.1.3-.1.7-.1 1v-15.7c0-.3 0-.7.1-1 .2-.9.3-1.8.3-2.6zM218.7 439.9v16.5-15.7-.8z"></path>
			<g class="map-st0 map-st0">
				<path class="map-st2" d="M222.4 445.9v15.7c0 .4-.1.9-.3 1.3v-15.7c.2-.5.3-.9.3-1.3z"></path>
				<path class="map-st3" d="M222.2 447.1v15.7c-.1.3-.3.5-.5.7v-15.7c.2-.2.3-.4.5-.7z"></path>
			</g>
			<path class="map-st3" d="M655 450.1v15.7c-.2.2-.4.5-.7.8v-15.7c.2-.3.5-.6.7-.8z"></path>
			<path class="map-st5" d="M654.2 448.9c.2 0 .3 0 .4.1.2.1.3.5.5.9-.5.6-1 1.3-1.7 1.9-.2.2-.5.3-.8.3-.3 0-.6-.2-.8-.5-.1-.2-.2-.7-.1-.8.6-.6 1.3-1.2 2-1.8.2 0 .4-.1.5-.1z"></path>
			<g class="map-st0 map-st0">
				<path class="map-st2" d="M390.3 450.3V466c0 .5-.1 1-.3 1.5v-15.7c.1-.5.3-1 .3-1.5z"></path>
				<path class="map-st3" d="M389.9 451.8v15.7c-.2.4-.4.7-.7 1.1v-15.7c.3-.4.6-.7.7-1.1z"></path>
			</g>
			<g class="map-st0 map-st0">
				<path class="map-st2" d="M596.7 473.3V489c0 .1 0 .2-.1.3v-15.7c.1-.1.1-.2.1-.3z"></path>
				<path class="map-st3" d="M596.7 473.6v15.7c0 .1-.1.1-.1.2v-15.7c0-.1 0-.2.1-.2z"></path>
			</g>
			<path class="map-st1" d="M164.5 478c-.2.3-.5.6-.9.8-.1.1-.2.1-.3.2-.9.6-2 1.1-2.9 1.7-.5.3-.9.7-1.2 1.1-.2.2-.3.4-.5.6-.6.7-1.2 1.4-1.5 2.2-.2.5-.3.9-.3 1.4v15.7c0-.5.1-1 .3-1.4.4-.8.9-1.5 1.5-2.2.2-.2.3-.4.5-.6.3-.4.8-.8 1.2-1.1.9-.6 1.9-1.1 2.9-1.7.1-.1.2-.1.3-.2.4-.3.7-.5.9-.8.2-.3.4-.5.5-.8.2-.5.3-1 .3-1.6v-15.7c0 .6-.1 1.1-.3 1.6-.1.2-.3.5-.5.8zM166.4 448.3zM197.5 265c.7-1.7 1.6-3.3 2.6-4.7 3.7-5.2 6.3-11 9.6-16.3.6-.9 1.1-1.9 1.8-2.7.3-.4.7-.7 1.1-1 .1 0 .1-.1.2-.1 1.4-1 2.6-2.1 3.7-3.3 1-1.1 1.8-2.4 2.4-3.8.2-.4.4-.7.7-1.1.5-.6 1.2-1.2 1.8-1.8 1.1-1.1 2.3-2 3.6-2.9 2.8-1.9 6-3.4 9.2-4.9 5.5-2.6 10.9-5.4 16.3-8.1.5-.2.9-.5 1.3-.7.8-.5 1.4-1.1 2-1.8.7-.9 1.3-1.8 1.8-2.9.4-.9.7-1.9 1-2.8.1-.4.1-.7.1-1.1v-16c0 .4 0 .8-.1 1.1-.3 1-.6 1.9-1 2.8-.5 1-1 2-1.8 2.9-.6.7-1.2 1.3-2 1.8-.4.3-.8.5-1.3.7-5.4 2.8-10.8 5.6-16.3 8.1-3.2 1.5-6.4 3-9.2 4.9-1.3.9-2.5 1.8-3.6 2.9-.6.6-1.3 1.2-1.8 1.8-.3.3-.5.7-.7 1.1-.6 1.4-1.4 2.7-2.4 3.8-1 1.2-2.2 2.3-3.7 3.3-.1 0-.1.1-.2.1-.4.3-.7.6-1.1 1-.7.8-1.2 1.8-1.8 2.7-3.3 5.4-5.8 11.1-9.6 16.3-1.1 1.5-1.9 3.1-2.6 4.7-.5 1.2-1.1 2.5-1.6 3.7-.8 1.8-1.1 3.6-1.1 5.5v15.7c0-1.8.3-3.7 1.1-5.5.5-1 1-2.2 1.6-3.4zM809.9 328.3l-.3.6c-.5.6-.9 1.2-1.4 1.8-.6.7-1.3 1.4-2.2 2-.7.5-1.5.9-2.4 1.1-.6.2-1.2.4-1.6.7-.3.2-.5.4-.7.7-.2.2-.4.5-.5.8-.1.3-.2.7-.3 1-.2 1.5-.6 3-1 4.5-.1.3-.2.6-.3.8-.2.5-.5.9-.8 1.2-.3.3-.5.6-.8.8-.7.5-1.5.7-2.4.7-.9 0-1.9-.3-2.8-.8-2.3-1.4-4.6-2.7-7-4-1.3-.7-1.9-1.7-2.5-2.8-1.7-2.8-2.1-3.6-4.1-3.6-.7 0-1.7.1-3 .3-3 .1-4.4-.4-5.2-2-.5-.8-1.1-1.6-1.7-2.3-.1 1.7-.5 3.2-1 4.5-.4.9-1 1.8-1.6 2.5-.8.9-1.6 1.6-2.6 2.3-1.5 1-3.2 1.8-4.9 2.6-.9.4-2 .4-3 .6V358c1-.3 2.1-.3 3-.6 1.8-.8 3.5-1.6 4.9-2.6 1-.7 1.9-1.4 2.6-2.3.6-.7 1.2-1.6 1.6-2.5.6-1.3.9-2.7 1-4.5.6.7 1.2 1.5 1.7 2.3.9 1.6 2.2 2.1 5.2 2 1.3-.2 2.3-.3 3-.3 2 0 2.5.8 4.1 3.6.6 1.1 1.2 2.1 2.5 2.8 2.4 1.3 4.7 2.7 7 4 1 .6 1.9.8 2.8.8.9 0 1.7-.2 2.4-.7.3-.2.6-.5.8-.8.3-.3.5-.7.8-1.2.1-.3.2-.5.3-.8.4-1.5.8-3 1-4.5.1-.4.2-.7.3-1 .1-.3.3-.6.5-.8l.7-.7c.5-.3 1-.6 1.6-.7.9-.3 1.7-.7 2.4-1.1.8-.6 1.5-1.3 2.2-2 .5-.6 1-1.2 1.4-1.8.1-.2.3-.4.3-.6.1-.3.2-.6.2-.9v-15.7c0 .3-.1.6-.2.9zM761.4 361.1c-.3.3-.6.6-.9.8-.5.4-1.1.6-1.7.6-1.6-.2-2.9-.4-4.3-.8-.6-.2-1.3-.2-1.9-.2-1.1 0-2.2.3-3.2.7-4.6 2.2-9.2 4.4-13.7 6.7l-.9.6c-.3.2-.5.4-.7.5-4.5 3.8-9.1 7.6-13.6 11.5-3.8-.8-4.7-1.8-5.9-2.5-.9-.5-2-.8-3-.8-.7 0-1.3.1-2 .3-1.2.4-2.6.7-3.5 1.3-.1.1-.2.1-.2.2-.4.3-.8.7-1.3 1-1.1.8-2.2 1.3-3.5 1.3-.8 0-1.6-.2-2.5-.6-2.4 1.3-5.1 1.8-7.8 1.9-.2 0-.4.1-.7.3-.2.1-.4.3-.5.5-.1.1-.2.3-.3.4-.2.4-.3.7-.5 1.1-1.4 3.1-2.9 6.1-5.1 8.8-.1.1-.2.3-.2.4-.1.2-.2.5-.2.8v15.7c0-.3.1-.5.2-.8.1-.1.1-.3.2-.4 2.2-2.7 3.7-5.7 5.1-8.8.2-.4.3-.7.5-1.1.1-.1.2-.3.3-.4l.4-.4v7.5c0 .5.6.7 1.3.7.4 0 .8-.1 1.1-.3.1-.1.2-.1.2-.2.3-.3.5-.8.7-1.2V399c1.8-.3 3.6-.7 5.2-1.6.9.4 1.7.6 2.5.6 1.3 0 2.4-.5 3.5-1.3.4-.3.8-.6 1.3-1 .1-.1.2-.1.2-.2 1-.7 2.3-.9 3.5-1.3.7-.2 1.3-.3 2-.3 1.1 0 2.1.3 3 .8 1.2.6 2 1.6 5.9 2.5 4.5-3.9 9-7.7 13.6-11.5.2-.2.5-.4.7-.5l.9-.6c4.6-2.2 9.2-4.5 13.7-6.7 1-.5 2.1-.7 3.2-.7.6 0 1.2.1 1.9.2 1.3.3 2.7.6 4.3.8.6 0 1.1-.2 1.7-.6.3-.2.6-.5.9-.8.3-.3.5-.6.6-1 .2-.3.2-.7.2-1v-15.7c0 .3-.1.7-.2 1 0 .4-.2.7-.5 1z"></path>
			<path class="map-st1" d="M687.1 411.4c-.2.2-.4.4-.7.6-.2.1-.4.2-.6.4-1.1.3-1.9.7-2.5 1.1-.4.2-.7.5-.9.8l-.6.9c-.2.5-.3 1.1-.4 1.7v5.4c0 .1-.1.1-.1.2-.2.2-.4.4-.7.6-.2.2-.5.3-.7.4-.6.2-1.3.4-2 .5-1.1.2-2.1.6-2.9 1.1-.4.3-.7.6-1 .9-.3.3-.5.7-.7 1.2-.3.6-.4 1.2-.5 1.9-.1.8-.2 1.5-.5 2.2-.1.3-.3.6-.6.9-.2.2-.5.5-.8.7-.3.2-.7.4-1.2.6-.4.2-.8.3-1.1.6-.3.2-.6.5-.9.8-.4.4-.6.9-.9 1.4-.2.5-.4 1-.5 1.5l-.6 1.8c-.5 1.1-1.1 2-1.8 2.9-.7.8-1.5 1.5-2.4 2.2-.5.4-1.1.7-1.8 1-1.5.1-2.6-.2-2.8-.6-2-8.7-3.8-16.6-5-24.5-.2-1.2-.3-2.3-.3-3.4v15.7c0 1.1.1 2.3.3 3.4.8 5.4 1.9 10.8 3.2 16.4v13.1l.2-.2v-12.3c.5 2.4 1.1 4.9 1.7 7.4.2.4 1.3.7 2.8.6.6-.3 1.2-.7 1.8-1 .9-.6 1.7-1.4 2.4-2.2.8-.9 1.4-1.9 1.8-2.9.3-.6.5-1.2.6-1.8.2-.5.3-1.1.5-1.5.2-.5.5-1 .9-1.4.3-.3.5-.6.9-.8.3-.2.7-.4 1.1-.6.5-.2.9-.4 1.2-.6.3-.2.5-.4.8-.7l.6-.9c.3-.7.4-1.4.5-2.2.1-.7.2-1.4.5-1.9.2-.4.4-.8.7-1.2.3-.3.6-.6 1-.9.8-.5 1.7-.9 2.9-1.1.7-.1 1.4-.3 2-.5.3-.1.5-.2.7-.4.2-.2.5-.4.7-.6.2-.2.4-.5.5-.7.1-.3.2-.7.2-1v-5.8c.1-.2.2-.4.4-.6.2-.3.5-.6.9-.8.6-.4 1.5-.8 2.5-1.1.2-.1.4-.2.6-.4.3-.2.5-.4.7-.6.2-.2.3-.4.4-.6.1-.3.2-.6.2-.9v-15.7c0 .3-.1.6-.2.9-.2.2-.4.4-.5.6zM600.1 457.4c-.1.1-.2.3-.4.4-.3.2-.7.4-1.1.5-.7.2-1.3.5-1.8.8-.4.3-.7.6-1 .9-.5.6-.9 1.3-1.2 2-.2.4-.3.7-.5 1.1-.4.9-.6 1.7-.6 2.6v9.4c-1 .4-1.9.8-2.9 1.1-.3-.5-.5-1-.7-1.5v-7.8c0-2-.6-3.9-.6-5.8V473c-.1-.6-.2-1.1-.2-1.6v15.7c0 1.3.5 2.9 1.5 4.8 1.3-.3 2.5-1 3.8-1.4 1-.3 1.6-.5 1.9-.7.1-.1.2-.1.2-.2V475l.1-.1c.5-.3 1.1-.6 1.8-.8.5-.1.8-.3 1.1-.5.2-.1.3-.2.4-.4.1-.1.2-.3.3-.4.1-.2.2-.5.2-.8v-15.7c0 .3-.1.5-.2.8.1 0 0 .2-.1.3zM161.5 502.7c-.3.3-.6.6-1 .9-.4.3-.8.4-1.1.5-4.9-1.9-7.6-3.8-10.5-5.5-1.1-.6-2.3-1.7-3.4-1.7-5 .1-7.8-2.1-11.1-2.7-3.4-.6-6.8-1.3-10.1-2-.7-.1-1.4-.3-1.9-.7-4-2.5-7.9-5-11.9-7.5-.7-.4-1.1-1.1-1.1-1.7V498c0 .6.4 1.2 1.1 1.7 3.9 2.5 7.9 5 11.9 7.5.5.3 1.3.5 1.9.7 3.4.7 6.8 1.4 10.1 2 3.3.6 6.1 2.8 11.1 2.7 1 0 2.3 1 3.4 1.7 2.9 1.7 5.6 3.6 10.5 5.5.4 0 .7-.2 1.1-.5.3-.2.7-.5 1-.9.3-.3.5-.7.6-1 .1-.3.2-.5.2-.7V501c0 .2-.1.5-.2.7-.1.3-.3.7-.6 1zM715.1 304.5s0-.1 0 0v-15.7c-.6.7-1.5 1.2-2.2 1.8-.5.3-.9.7-1.1.9v15.7c.2-.3.6-.6 1.1-.9.7-.6 1.6-1.2 2.2-1.8zM149.4 327.4c.6-.4 1.4-.8 2.1-1.1.5-.2.9-.4 1.2-.6.3-.2.6-.4.8-.7v-15.7c-.2.2-.5.5-.8.7-.3.2-.7.4-1.2.6-.7.3-1.4.7-2.1 1.1-.2.1-.4.3-.5.4l-.2.2V328l.2-.2c.2-.2.3-.3.5-.4zM273.5 313.5l-.6.6v15.7l.6-.6v-15.7zM270.9 333v-15.7c-.6.7-1.3 1.3-2.1 1.9-2.1 1.5-4.8 2.2-8 2.3v15.7c3.2-.1 5.9-.9 8-2.3.8-.6 1.5-1.2 2.1-1.9zM654.6 391.1c1.2-1.4 2.3-2.9 3.4-4.3.1-.1.2-.3.3-.4.4-.5.9-.9 1.4-1.2 1.2-.9 2.7-1.3 4.4-1.4 1-.1 1.9-.3 3.1-.3 2.4.1 4.2.9 4.5 3 .1.9.1 1.9.3 2.8.5 1.8 1.6 2.7 2.9 2.7.7 0 1.4-.2 2.1-.7.1-.1.2-.2.3-.2 1.8-1.5 3.5-3.1 5.4-4.4.5-.4 1.1-.7 1.7-1 .3-.2.6-.3.9-.5.4-.3.8-.6 1.1-1 .3-.3.5-.7.7-1 .3-.6.4-1.2.5-1.9 0-.4.1-.8.3-1.2.1-.2.2-.3.3-.5.1-.2.3-.3.5-.4.5-.4 1.3-.7 2.6-.9v-15.7c-1.2.2-2 .5-2.6.9-.2.1-.4.3-.5.4-.1.2-.2.3-.3.5-.2.4-.2.8-.3 1.2-.1.7-.2 1.3-.5 1.9-.2.4-.4.7-.7 1-.3.3-.6.7-1.1 1-.3.2-.6.4-.9.5-.6.3-1.1.6-1.7 1-1.9 1.3-3.6 3-5.4 4.4-.1.1-.2.2-.3.2-.7.5-1.4.7-2.1.7-1.3 0-2.4-.9-2.9-2.7-.2-.9-.2-1.8-.3-2.8-.3-2.2-2.2-2.9-4.5-3-1.2 0-2.1.2-3.1.3-1.7.1-3.2.5-4.4 1.4-.5.3-1 .8-1.4 1.2-.1.1-.2.3-.3.4-1.1 1.5-2.2 2.9-3.4 4.3-1.3 1.5-2.8 3-4.4 4.3-.5.4-1 .8-1.3 1.2-.3.4-.6.8-.8 1.2-.2.5-.3.9-.3 1.4v5.6c-3.9.7-7.8 1.5-11.6 2.2-2.7.2-3-.5-3.4-2.3-.1-.6-.2-1.5-.5-1.6-2.2-.8-4.5-1.4-6.8-2-.1.1-.2.1-.3.2-3.4 2.3-6.2 2.8-9.2 2.8-1 0-2-.1-3.1-.1-1-.1-2.1-.1-3.1-.1-.7 0-1.4 0-2.1.1-2.7 0-4.5-.3-6.2-.4-4 0-7.2.6-9.7 2.3-.8.5-1.5 1.1-2.1 1.9-.3.3-.5.6-.8 1-.1 0-.1.1-.2.1-1.2.8-2.1 1.8-3 2.8-1 1.2-2 2.5-3 3.8-.8.9-1.6 1.8-2.6 2.5-2.3 1.7-4.2 3.7-6 5.8-.7.9-1.4 1.7-2.1 2.6-.1.1-.1.2-.2.3-1.4 1.6-3.2 2.9-4.9 4.4-1.7 1.5-3.4 3.1-5 4.7v15.7c1.6-1.6 3.3-3.1 5-4.7 1.6-1.5 3.5-2.8 4.9-4.4.1-.1.2-.2.2-.3.7-.9 1.4-1.8 2.1-2.6 1.8-2.1 3.7-4.1 6-5.8 1-.7 1.8-1.6 2.6-2.5 1-1.2 2-2.5 3-3.8.9-1 1.8-2 3-2.8.1 0 .1-.1.2-.1.2-.3.5-.7.8-1 .6-.7 1.3-1.4 2.1-1.9 2.5-1.7 5.7-2.3 9.7-2.3 1.7.1 3.5.4 6.2.4.7-.1 1.4-.1 2.1-.1 1 0 2.1.1 3.1.1 1 .1 2 .1 3.1.1 2.9 0 5.8-.4 9.2-2.8.1-.1.2-.1.3-.2 2.3.6 4.6 1.2 6.8 2 .4.1.4 1.1.5 1.6.4 1.8.7 2.5 3.4 2.3 4.1-.8 8.1-1.5 12.2-2.3.2 0 .4-.1.6-.3.1-.1.3-.2.4-.4v-8c.3-.3.6-.5.9-.8 1.6-1.1 3-2.6 4.3-4.1z"></path>
			<path class="map-st1" d="M653.3 451.9c-.2.1-.4.2-.6.2-.3 0-.6-.2-.8-.5-.1-.1-.1-.3-.1-.5v15.7c0 .2.1.4.1.5.2.3.5.5.8.5.2 0 .4-.1.6-.2.1 0 .1-.1.2-.1l.9-.9v-15.7l-.9.9c-.1.1-.2.1-.2.1zM388.3 453.7c-.8.5-1.7.9-2.7.9-3.1-.2-5.8-.5-8.6-.8-1.8-.2-3.3-.8-4.7-1.8-2.6-1.8-5.3-2.6-8.1-2.6-2.4 0-4.9.7-7.4 2.1-2.1 1.1-3.9 2.5-6.1 3.6-2.7 1.3-5.6 2.5-8.4 3.5-1.5.1-2.3-.1-3-.2-.6-.1-1.2-.8-1.8-.8-5.3-.4-8.9-3.1-11.8-6.7-1.4-1.8-2.9-2.8-5-2.8-.6 0-1.3.1-2.1.3-.8.2-1.6.3-2.4.3-1.3 0-2.5-.3-3.6-.9-.9-.5-1.8-.7-2.7-.7-.7 0-1.4.1-2.2.2-.9 0-2.1-.7-2.5-1.3-1.8-2.7-3.3-5.4-4.9-8.2-1.7-2.7-3.4-5.5-6.1-7.4-1.8-1.2-2.8-3.8-5.3-3.8-2.2.2-3.9 1.7-5.7 2.6-.6.3-1.2.6-1.9.8-.8.3-1.6.4-2.4.4-1 0-1.9-.3-2.5-.9-2.2-2.4-5.2-2.8-8.2-3.4-1.5-.3-2.3-1.2-2.6-2.6-.3-1.5-.4-3.4-2.1-4-1.8-.6-3.7-1.3-5.6-1.3-1.4 0-2.8.3-4.1 1.3l-.1.1c-.1 0-.1.1-.2.1-1 .7-2.2 1.3-3.5 1.6-8.8 1.8-17.1 5.2-26.1 6.3-.5.1-.8.2-1.1.3-.1.1-.2.1-.2.2v5.9c-.3.1-.5.2-.7.4-.3.2-.5.4-.7.7-.3.4-.5.8-.7 1.2-.4.9-.6 1.8-1 2.7-.1.3-.3.6-.5.9v9.3c-1.4.4-2.9.6-4.4.6-1.7 0-3.3-.3-5-1.1-1.8-.9-3.7-1.3-5.5-1.3-1.9 0-3.8.4-5.6 1.1-1.6.6-3 .9-4.4.9-2.2 0-4.2-.8-6.1-2.3-2.9-2.4-6.2-3.2-9.9-3.2-3.8.1-6.8.9-9.2 2.5-.8.6-1.6 1.3-2.3 2.1v7.8-7.8c-.8.9-1.4 2-2 3.2-.3.7-.5 1.1-.8 1.4l-.3.3v7.8-7.8c-.3.2-.6.3-1 .3-.6 0-1.3-.1-2.5-.3-1.2 0-2 .2-2.6.6-.1.1-.3.2-.4.3-.1.1-.2.2-.2.4 0 .1-.1.2-.1.3-.2.9-.3 1.8-.5 2.7-.3 1.2-.5 2.3-.5 3.3v15.7c0-1 .2-2.1.5-3.3.2-.9.3-1.8.5-2.7 0-.1.1-.2.1-.3.1-.1.1-.3.2-.4.1-.1.2-.2.4-.3.6-.4 1.4-.6 2.6-.6 1.1.2 1.9.3 2.5.3.5 0 .8-.1 1-.3l.3-.3c.3-.3.5-.8.8-1.4.6-1.2 1.2-2.2 2-3.2.7-.8 1.4-1.5 2.3-2.1 2.3-1.6 5.4-2.4 9.2-2.5 3.7 0 7.1.8 9.9 3.2 1.9 1.6 3.9 2.3 6.1 2.3 1.4 0 2.9-.3 4.4-.9 1.8-.7 3.7-1.1 5.6-1.1 1.8 0 3.7.4 5.5 1.3 1.6.8 3.3 1.1 5 1.1 2 0 4.1-.5 6.1-1.1.3-.1.5-.2.7-.4.2-.1.4-.3.5-.5v-13.4c.3-.2.7-.4 1.2-.5v-6c.2-.1.4-.2.7-.2 9-1.1 17.3-4.5 26.1-6.3 1.2-.3 2.4-.9 3.5-1.6.1 0 .1-.1.2-.1l.1-.1c1.4-.9 2.8-1.3 4.1-1.3 1.9 0 3.8.7 5.6 1.3 1.7.6 1.8 2.5 2.1 4 .2 1.3 1.1 2.3 2.6 2.6 3 .6 6 1 8.2 3.4.6.7 1.5.9 2.5.9.8 0 1.6-.2 2.4-.4.6-.2 1.3-.5 1.9-.8 1.8-.9 3.5-2.4 5.7-2.6 2.4 0 3.5 2.5 5.3 3.8 2.8 2 4.5 4.7 6.1 7.4 1.6 2.7 3.2 5.5 4.9 8.2.4.6 1.6 1.3 2.5 1.3.8-.1 1.5-.2 2.2-.2.9 0 1.8.1 2.7.7 1.1.6 2.4.9 3.6.9.8 0 1.6-.1 2.4-.3.7-.2 1.4-.3 2.1-.3 2.1 0 3.6 1.1 5 2.8 2.9 3.6 6.6 6.2 11.8 6.7.6.1 1.2.7 1.8.8.7.1 1.5.3 3 .2 2.9-1 5.7-2.2 8.4-3.5 2.1-1 4-2.4 6.1-3.6 2.5-1.4 5-2.1 7.4-2.1 2.7 0 5.4.9 8.1 2.6 1.4 1 2.9 1.6 4.7 1.8 2.8.3 5.5.6 8.6.8 1 0 1.9-.3 2.7-.9.4-.3.7-.6 1-.9v-15.7c-.2.3-.6.6-.9.8zM402.5 204.8v-15.7-.6c-.1-.4-.1-.8-.1-1.2V203c0 .4 0 .8.1 1.2v.6zM561.1 225.7c.3 0 .6.1.9.1.3 0 .6 0 .7-.1l.1-.1c.2-.3.4-.6.6-1 .2-.4.3-.8.5-1.1v-15.7c-.2.3-.3.7-.5 1.1-.2.3-.3.7-.6 1l-.1.1c-.1.1-.4.1-.7.1-.3 0-.7 0-.9-.1-.2 0-.6-.4-.6-.6v15.7c0 .2.3.5.6.6zM196.6 234.4v-15.7c0-.4-.2-.9-.3-1.4 0-.3-.1-.5-.1-.7v15.7c0 .2 0 .5.1.7.1.5.3 1 .3 1.4zM610.7 230.9c2.6 2 5.2 4 8 5.7 1 .6 2.6.7 4 .8h.3c2.4 0 4.4-1 6.3-2.3.2-.1.3-.3.5-.4.2-.2.3-.4.4-.6.2-.4.3-.8.3-1.3v-15.7c0 .4-.1.9-.3 1.3-.1.2-.2.4-.4.6-.1.2-.3.3-.5.4-1.9 1.3-3.9 2.3-6.3 2.3h-.3c-1.3-.1-2.9-.1-4-.8-2.8-1.7-5.5-3.7-8-5.7-.9-.7-1.3-1.6-1.3-2.6v15.7c0 1 .4 1.9 1.3 2.6zM432.5 254.4c1.3-.4 2.4-.8 3.3-1.5.6-.4 1.2-.9 1.7-1.6 1.5-1.7 3-3.3 4.5-5v4.8c0 .6.3 1.2.5 1.8.1.4.3.8.3 1.2v-8.5c.7-.7 1.3-1.4 2-2.1 1-1.1 2.1-2.1 3.3-2.9 1-.7 2.1-1.2 3.4-1.5v4.3c0 .4.1.9.4 1.2.7 1.2 2.4 2 3.7 2h.5c.5-.1 1-.3 1.5-.6.3-.2.6-.5.9-.8.3-.3.5-.7.7-1 .2-.4.3-.9.3-1.3v-11.8c.5-.6.9-1.3 1.2-2 .4-1 .7-2 .7-3.2v-15.7c0 1.1-.3 2.2-.7 3.2-.4.9-1 1.8-1.7 2.6-.2.2-.4.5-.6.7-1.3 1.4-3 2.6-4.2 4.1-.1.2-.2.3-.3.5-.3.6-.3 1.2-.5 1.9-2 .1-3.7.8-5.1 1.8-1.2.8-2.3 1.9-3.3 2.9-2.4 2.6-4.9 5.2-7.2 7.9-.5.6-1.1 1.1-1.7 1.6-1 .7-2.1 1.2-3.3 1.5-.3.1-.6.2-.8.4-.2.1-.4.3-.5.5v15.7c.1-.2.3-.3.5-.5-.1-.4.2-.5.5-.6zM335.6 245.2c1 1 1.5 1.7 1.5 2.3v-15.7c0-.6-.5-1.4-1.5-2.3-1.8-1.7-2.7-3.6-2.8-5.7v-.2V239.5c.1 2.2 1 4 2.8 5.7zM187.4 255v-15.7c0-.7-.2-1.4-.5-2.2-.1-.1-.1-.3-.1-.5v15.7c0 .2 0 .3.1.5.3.8.5 1.5.5 2.2zM567.5 230.3c1.8 2.2 3.5 4.5 5.5 6.6.7.7 2 1.2 3.3 1.2.9 0 1.7-.2 2.4-.6 1.1-.6 2.2-1.1 3.3-1.4v10.8c0 .3 0 .5.2.7l.9 1.2v7c0 .4.1.7.2.7 3.3 1.5 6.7 3 10.4 3 .8 0 1.6-.1 2.4-.2.1 0 .2-.1.4-.2.1-.1.3-.2.4-.4V243l-.4.4c-.1.1-.2.1-.4.2-.8.2-1.6.2-2.4.2-3.3 0-6.4-1.3-9.3-2.6v-5.9c1.9-.4 3.9-.5 5.7-.5 1.2.5 2.2.6 3.2.6 1.2 0 2.3-.3 3.4-.7 1.2-.5 2.3-1.4 3.5-2 .4-.2.7-.4 1-.6.5-.4 1-.8 1.3-1.2.5-.6.9-1.3 1.2-2 .2-.4.3-.8.5-1.2.5-1.5.8-2.5.8-3.4v-15.7c0 .8-.3 1.9-.8 3.4-.1.4-.3.8-.5 1.2-.3.7-.7 1.4-1.2 2-.4.4-.8.8-1.3 1.2-.3.2-.6.4-1 .6-1.2.6-2.3 1.5-3.5 2-1.1.4-2.2.7-3.4.7-1 0-2-.2-3.2-.6-3.6.1-7.6.4-11.2 2.6-.7.4-1.5.6-2.4.6-1.3 0-2.6-.4-3.3-1.2-1.9-2.1-3.7-4.4-5.5-6.6-.2-.2-.3-.6-.3-.9 0-.8-.1-1.6-.1-2.5V227c0 .8 0 1.6.1 2.5-.2.2 0 .5.1.8zM302.8 266.2c.2 0 .3 0 .5-.1.1-.1.2-.1.4-.2s.3-.2.4-.4v-15.7l-.4.4c-.1.1-.2.1-.4.2-.1.1-.3.1-.5.1-1 0-2.3-1.1-2.3-2.1v15.7c0 1 1.3 2.1 2.3 2.1zM181.1 268.9v-15.7c0-.5-.1-1-.2-1.5-.1-.4-.1-.8-.1-1.2v15.7c0 .4 0 .8.1 1.2.1.6.2 1.1.2 1.5zM283.3 270.3v-15.7c0-1-.2-2-.5-3-.5-1.4-1.6-2.7-2.3-4.1v15.7c.8 1.4 1.8 2.7 2.3 4.1.3 1 .5 2.1.5 3zM577.3 256.3V272c0 .3.1.5.2.8.9 1.2 1.4 2.4 1.4 3.9V261c0-1.4-.5-2.7-1.4-3.9-.2-.2-.2-.5-.2-.8zM309.7 268.1c.2 1.2 1 2.3 2.2 3 .9.5 1.8 1 2.7 1.4 2.2 1 2.6 2.8 2.8 4.6v.1-15.7-.1c-.3-1.8-.6-3.7-2.8-4.6-.9-.4-1.8-.9-2.7-1.4-1.2-.7-2-1.8-2.2-3-.5-3.3-.9-6.7-1.3-10v-.4V258.1c.4 3.3.8 6.7 1.3 10zM293.8 285.5v-12.3c.2.4.3.9.3 1.5V259c0-1.3-.5-1.9-.9-2.5-.2-.3-.3-.7-.3-1v13.4c-1.1-1.1-2.3-2.1-3.2-3.3-.9-1-1.3-2.1-1.3-3v15.7c0 .9.4 2 1.3 3 1.2 1.5 2.7 2.8 4.1 4.2zM760.6 290.6h.1c1.3-.1 3.7-.2 6-.3 1-.1 2-.3 3-.5 1.3-.4 2.6-.8 3.8-1.3.1 0 .2-.1.3-.1.1-.1.3-.2.4-.3.2-.2.3-.5.5-.8.2-.4.3-.9.3-1.3v-15.7c0 .4-.1.9-.3 1.3-.1.3-.3.5-.5.8-.1.1-.2.3-.4.3-.1.1-.2.1-.3.1-1.3.5-2.5.9-3.8 1.3-1 .3-2 .5-3 .5-2.4.2-4.7.3-6 .3h-.1c-1.7 0-2.9-1.5-2.9-2.5v15.7c0 1 1.1 2.5 2.9 2.5zM319 286.1h.2c.5 0 1.3.3 1.4.7.8 2.3 1.5 4.6 2.1 7 0 .2.1.3.1.4v-15.7c0-.1 0-.3-.1-.4-.5-2.4-1.3-4.7-2.1-7-.1-.3-.9-.7-1.4-.7h-.2c-.1 0-.2.1-.4.2-.1.1-.3.2-.4.4v15.7l.4-.4c.2-.1.3-.2.4-.2zM277.1 287.9v15.5c0 1.9.3 3.8.9 5.7.3 1.2 1.3 2 2.7 2.2v7c0 .8.2 1.7.4 2.6.2.6.3 1.2.5 1.8.1.4.1.9.1 1.3v-12.6h1.2c.7 0 1.4-.2 2.6 1.3V297c-1.2-1.5-1.9-1.3-2.6-1.3-.8 0-1.4 0-2.1-.1-1.5-.1-2.6-1-2.9-2.2-.5-1.9-.8-3.7-.8-5.5.3.8.7 1.5 1 2.3.7 1.4 1.1 2.7 1.1 4.1v-15.7c0-1.4-.4-2.7-1.1-4.1-.7-1.4-1.2-2.9-2.1-4.2-.7-1-.9-1.9-.9-2.8v15.7c0 .9.3 1.8.9 2.8.4.5.7 1.2 1.1 1.9z"></path>
			<path class="map-st1" d="M177 282c1.5 1.7 2.8 3.6 4.5 5.1 1.4 1.3 3.4 1.8 4.4 3.7.5.9 2.2 1.3 3.4 1.9 2.8 1.5 6.1 1 9.6 1.5.6 0 1.6-.1 2.7-.2.3 0 .6-.3 1-.3.1 0 .2-.1.3-.2l.3-.3c.1-.2.3-.3.3-.5.1-.3.2-.5.2-.8v-15.7c0 .2-.1.5-.2.8-.1.2-.2.4-.3.5l-.3.3c-.1.1-.2.1-.3.2-.3.1-.6.3-1 .3-1 .1-2 .1-2.7.2-3.5-.5-6.7 0-9.6-1.5-1.2-.6-2.9-1-3.4-1.9-1-1.9-3-2.4-4.4-3.7-1.7-1.5-3-3.4-4.5-5.1-.2-.2-.4-.5-.6-.8-.6-.9-1-2-1-3v15.7c0 1.1.3 2.1 1 3 .2.3.4.6.6.8zM721.7 310.4v.3V295v-.3c-.4-1.2-.6-2.5-1.3-3.5-.5-.8-.8-1.6-.8-2.3v15.7c0 .8.2 1.5.8 2.3.7 1 .9 2.3 1.3 3.5zM211.4 287c-1.1-.7-1.9-1.7-2.7-2.7-.3-.3-.4-.7-.4-1.2v15.7c0 .5.1.9.4 1.2.8 1 1.6 2 2.7 2.7 3.3 2.1 5 5.1 6.4 8.3.2.5.4.9.4 1.3v-15.7c0-.4-.1-.8-.4-1.3-1.5-3.2-3.2-6.2-6.4-8.3zM246.3 302.8c0 .8.4 2.1 1.1 2.4 4.5 2 5 6.5 7.5 9.7.1.1.1.2.1.3v-15.7c0-.1 0-.2-.1-.3-2.5-3.1-3-7.5-7.2-9.5V280c0-1.5-.3-3.1-1.1-4.6-.5-.9-.8-1.9-.8-2.7v15.7c0 .7.2 1.5.5 2.2v12.2c0-.1 0 0 0 0zM163.7 315.4h.3c1.3 0 2.9-.6 4.1-1.4.5-.4 1-.8 1.4-1.3.3-.4.5-.7.7-1.1l.3-.9v-16 .3c0 .3-.1.6-.3.9-.2.4-.4.8-.7 1.1-.4.5-.9.9-1.4 1.3-1.2.8-2.8 1.4-4.1 1.4h-.3c-1-.1-2.6-1.4-2.8-2.4-.1-.5-.2-.9-.2-1.3v15.7c0 .4.1.9.2 1.3.2 1 1.7 2.3 2.8 2.4zM293.8 314.3c.3.1.7.2.8.4.4.7.8 1.5 1.1 2.1v-15.7c-.3-.6-.6-1.4-1.1-2.1-.1-.2-.5-.3-.8-.4v15.7zM73.4 322.8V335c0 .6.1 1.2.4 1.8.4.9.7 1.8 1.1 2.6.4.7.8 1.4 1 2.1v10.9c0 2.3.6 4.6 1.8 6.7.3.6.5 1.1.7 1.7v4.5c0 1.3.7 2.3 1.8 3.3.7.6 1.5 1.3 2.1 2 .8.9 1.1 1.8 1.1 2.8v-15.7c0-1-.4-1.9-1.1-2.8-.6-.7-1.4-1.4-2.1-2-.7-.6-1.2-1.2-1.5-1.9v-3.9c0-1.3-.4-2.5-1-3.7-.4-.7-.7-1.4-.9-2.1v-11.2c0-1.1-.2-2.2-.5-3.3v-15c0-.7-.3-1.4-.7-2.1-.7-1-1.6-2-2.5-3-1.7-1.9-2.5-3.9-2.5-5.8v15.7c0 1.9.8 3.9 2.5 5.8.2.3.2.4.3.4zM141.1 329.8c0 2 .5 4.1 2.1 6.4 0 .2.1.4.1.6v-15.7c0-.2 0-.4-.1-.6-.5-.8-.9-1.5-1.2-2.2v-10.8c0-1.7-.5-3.3-.9-4.9v27.2zM107.8 355.9c0 .5.2 1 .5 1.4.5.8 1.3 1.5 2 2.1.5.4 1 .8 1 1.7v-15.7c0-1-.6-1.3-1-1.7-.6-.5-1.2-1.1-1.6-1.6.9.3 1.9.5 2.8.8 1.9.5 3.6.8 5.3.8 2 0 3.8-.4 5.5-1.1v7.2c0 .5.1 1.1.3 1.6.3.9.8 1.7 1.2 2.6.1.3.2.6.2.9v-13.2c.1-.1.3-.2.4-.3 1-.7 1.9-1.5 2.8-2.5l.2-.2V323l-.2.2c-.9 1-1.8 1.8-2.8 2.5-2.2 1.5-4.8 2.3-7.6 2.3-1.7 0-3.4-.3-5.3-.8-5-1.4-9.9-2.9-14.7-4.6v15.7c3.6 1.3 7.3 2.5 11.1 3.5v14.1zM71.2 395.2c.5.4.8 1 1.2 1.5.2.2.2.4.2.6v-15.7c0-.2-.1-.4-.2-.6-.3-.5-.7-1.1-1.2-1.5-1.5-1.2-2.1-2-2.1-2.9v15.7c0 .9.6 1.8 2.1 2.9zM590.1 461.3v3.5c0 1.7.2 3.4.2 5.1v-15.7c0-.9 0-1.7-.1-2.6V447c0-.5-.1-.9-.1-1.4-.1-1-1.6-2.4-2.5-2.4-.5.2-.9.5-1.3.7-.3.2-.5.4-.7.6-.1.1-.2.3-.3.4v.1c-.6 1.8-.9 3.6-1.1 5.4-.3 2.1-.4 4.3-.6 6.4-.2 1.8-.6 3.6-1.3 5.2-.5 1-1.1 2-1.8 2.9-.3.4-.7.8-1.1 1.1l-.6.6c-.7.8-1.2 1.7-1.8 2.5-2.4 3.2-3.9 6.8-6.5 9.9-.3.4-.7.8-1.1 1.2-2.3 2.3-4.5 4.8-6.6 7.2-.6.7-1.2 1.4-1.8 2.2l-.1.1c-1.1 1.3-2.4 2.5-3.9 3.4-.7.5-1.4.9-2.2 1.4-1.6.9-3.3 1.5-5 1.5-1 0-1.9-.2-2.9-.6-.8-.4-1.5-.5-2.2-.5-1.6 0-2.9.9-4.3 1.6v-6-.7c-.2-1.5-.2-3.1-.3-4.6v24.9c0 .6 0 1.4.2 2.2 1.4-.8 2.8-1.7 4.4-1.7.7 0 1.4.2 2.2.5 1 .5 1.9.6 2.9.6 1.7 0 3.4-.6 5-1.5.8-.4 1.5-.9 2.2-1.4 1.4-1 2.7-2.1 3.9-3.4l.1-.1c.6-.7 1.2-1.4 1.8-2.2 2.1-2.5 4.3-4.9 6.6-7.3.4-.4.7-.8 1.1-1.2 2.6-3.1 4.1-6.7 6.5-9.9.6-.8 1.1-1.7 1.8-2.5l.6-.6c.4-.4.8-.7 1.1-1.1.8-.9 1.4-1.9 1.8-2.9.7-1.6 1.1-3.4 1.3-5.2.2-2.1.3-4.3.6-6.4.3-1.8.5-3.7 1.1-5.4v-.1c.1-.1.2-.3.3-.4.2-.2.4-.4.7-.6.4-.3.8-.5 1.3-.7.9.2 2.4 1.6 2.5 2.5zM163.3 453.2zM122.1 473.1c0 .9.1 1.8.1 2.6V460c0-.9 0-1.8-.1-2.6 0-.5-.5-1.3-1.1-1.5-4.1-1.7-8-3.8-12.6-4.1-3.4-.2-6-1.4-7.3-4.4-2.3-1.5-4.1-3-4.9-5.7-.6-2-1.6-2.7-3.5-2.7-.6 0-1.3.1-2.2.2-.9.1-1.8.4-2.6.5v-9.3c0-.4-.3-.8-.8-1.3-3.2-3.3-6-6.8-6.3-11.4-.1-1.7-1.5-2.8-3.4-3-6.5-.7-9.5-4.5-10.6-9.8-.6-2.8-1-5.6-1-8.3v15.7c0 2.8.4 5.5 1 8.3 1.1 5.3 4.1 9.1 10.6 9.8 1.9.2 3.3 1.3 3.4 3 .2 3.2 1.5 5.8 3.4 8.2v9c0 1.5.4 2.9 1.4 4.1.3.4 1.2.7 1.8.7 1 0 2-.4 3-.6.8-.1 1.6-.2 2.2-.2 1.9 0 2.8.7 3.5 2.7.8 2.6 2.7 4.2 4.9 5.7 1.3 3 3.8 4.2 7.3 4.4 4.6.3 8.5 2.5 12.6 4.1.7.3 1.2 1.1 1.2 1.6z"></path>
			<path class="map-st1" d="M546.7 483c1.9-.7 3.8-1.5 7.6-1.8.4.3.8.9.8 1.4v-15.7c0-.4-.4-1.1-.8-1.4-3.8.3-5.7 1.1-7.6 1.8-1 .3-2 .5-3 .7-2.7.1-4.7-.9-5.1-2.4-1.5-5.1-5.3-7.8-10.9-8.8-2.2-.4-3.6-1.6-4.3-3.6-1.5-4.1-3.1-8.2-4.8-12.2-.7-1.7-1.6-3.4-2.6-5-.5-.8-1.3-1.6-2.2-1.9-2.5-1-5.1-2.1-7.8-2.6-1.1-.2-2.2-.3-3.3-.3-2.3 0-4.7.4-7 1.2-.8.3-1.4.5-1.8.8-.2.2-.4.3-.6.5-.1.2-.3.4-.4.6-.2.4-.3 1-.3 1.6v4.5c0 .1-.1.3-.1.4-.1.3-.3.6-.6.9-1.8 2.2-3.1 4.6-4.3 7.1-.4.9-.8 1.9-1.2 2.9 0 .1-.1.1-.1.2-.2.4-.4.8-.8 1.2-.4.5-.9.9-1.5 1.3-1.6 1.1-3.6 1.8-5.5 1.8-.9 0-1.8-.2-2.5-.5-3.2-1.6-6.8-.9-10-2.4-.8-.4-1.6-.5-2.4-.5-1.1 0-2.1.3-2.9.9-.2.1-.4.3-.5.4-.5.4-.9.8-1.4 1.1-3.8 2.6-8.5 2.9-12.9 3.7-.7.1-1.4.2-2.2.2-3.4 0-6.7-1.3-9.6-3.1-1.1-.7-2.2-1.5-3.3-2.2-2.4-1.5-5-2.2-7.7-2.2-.7 0-1.5 0-2.2.1-1.7.2-3.4.8-5.1.9-3.6 0-6.3-.9-7.9-3.6-.5-.8-.8-1.8-1.4-2.5-.6-.7-1.3-1.5-2.2-1.8-2.6-1-5.2-1.8-7.8-2.5-2.3-.1-4.2.3-5.4 1.2-.4.3-.7.5-1 .9-.3.3-.5.7-.7 1-.3.6-.4 1.2-.4 1.8v15.7c0-.6.1-1.3.4-1.8.2-.4.4-.7.7-1 .3-.3.6-.6 1-.9 1.3-.9 3.1-1.3 5.4-1.2 2.6.8 5.3 1.6 7.8 2.5.9.3 1.6 1.1 2.2 1.8.6.7.9 1.7 1.4 2.5 1.6 2.7 4.3 3.6 7.9 3.6 1.7 0 3.4-.7 5.1-.9.7-.1 1.5-.1 2.2-.1 2.8 0 5.4.7 7.7 2.2 1.1.7 2.2 1.5 3.3 2.2 2.9 1.9 6.2 3.1 9.6 3.1.7 0 1.4-.1 2.2-.2 4.4-.8 9.1-1.1 12.9-3.7.5-.3 1-.7 1.4-1.1.2-.2.3-.3.5-.4.8-.6 1.8-.9 2.9-.9.8 0 1.6.2 2.4.5 3.1 1.4 6.7.8 10 2.4.7.4 1.6.5 2.5.5 1.9 0 3.9-.7 5.5-1.8.6-.4 1.1-.8 1.5-1.3.3-.4.6-.8.8-1.2 0-.1.1-.1.1-.2.4-1 .7-1.9 1.2-2.9 1.1-2.5 2.5-4.9 4.3-7.1l.6-.9c.3-.6.4-1.3.4-1.9v-4.4c0-.1 0-.1.1-.2.1-.2.2-.4.4-.6.2-.2.3-.4.6-.5.5-.3 1.1-.6 1.8-.8 2.3-.8 4.6-1.2 7-1.2 1.1 0 2.2.1 3.3.3 2.7.5 5.2 1.6 7.8 2.6.9.4 1.7 1.2 2.2 1.9 1 1.6 1.9 3.3 2.6 5 1.7 4 3.3 8.1 4.8 12.2.7 2 2.1 3.2 4.3 3.6 5.6 1.1 9.3 3.7 10.9 8.8.5 1.6 2.5 2.5 5.1 2.4.9-.2 2-.4 2.9-.7zM115.8 487v-15.7c-.1-.3-.1-.7-.1-1V486c.1.3.1.6.1 1z"></path>
			<g>
				<path class="map-st5" d="M809.6 326.3c.6.7.6 1.6-.1 2.5-1.5 2.1-3.1 4.1-5.9 5-1.8.5-2.9 1.5-3.2 3.3-.2 1.5-.6 3-1 4.5-.6 2.3-2.3 3.5-4.3 3.5-.9 0-1.9-.3-2.8-.8-2.3-1.4-4.6-2.7-7-4-1.3-.7-1.9-1.7-2.5-2.8-1.7-2.8-2.1-3.6-4.1-3.6-.7 0-1.7.1-3 .3-3 .1-4.4-.4-5.2-2-.5-.8-1.1-1.6-1.7-2.3-.4 6.9-4.9 9.6-10.2 11.9-.9.4-2 .4-3 .6 1.5 3.1 3.1 4.9 3.5 7.6.2 1.8 1.5 3.4 2.2 5.2.5 1.2.8 2.4 1.1 3.5.4 1.6-1.6 3.8-3.3 3.8-1.6-.2-2.9-.4-4.3-.8-.6-.2-1.3-.2-1.9-.2-1.1 0-2.2.3-3.2.7-4.6 2.2-9.2 4.4-13.7 6.7-.6.3-1.2.7-1.7 1.1-4.5 3.8-9.1 7.6-13.6 11.5-3.8-.8-4.7-1.8-5.9-2.5-.9-.5-2-.8-3-.8-.7 0-1.3.1-2 .3-1.3.4-2.8.7-3.8 1.5-1.5 1.2-3 2.2-4.8 2.2-.8 0-1.6-.2-2.5-.6-2.4 1.3-5.1 1.8-7.8 1.9-.5 0-1.2.7-1.5 1.2-1.5 3.4-3.1 6.8-5.6 9.8-.8.9-.4 2.4.7 3.3.5.4 1.2.7 1.7 1.1.8.6 1.6 1.5 1 2.4-1.8 2.8 0 5.4.6 8 .3 1.2-.4 2.3-1.8 3-3.3.9-4.3 2.5-4.4 4.5-.1 1.2.4 2.4.5 3.7.1 1.2-.8 2.5-2.1 2.9-.6.2-1.3.4-2 .5-3.1.6-4.8 2.3-5.1 5.1-.2 1.9-.7 3.6-3 4.4-2.1.8-2.9 2.5-3.4 4.4-1 3.4-3.1 6.1-6.7 7.9-1.5.1-2.6-.2-2.8-.6-2-8.7-3.8-16.6-5-24.5-.9-5.6.3-11.1 4.2-15.8.8-1 1.3-2.2 1.7-3.3.4-1.3 1.3-2.2 2.5-2.8 4.9-2.1 8.2-5.4 11.2-9.4 3-4.1 7.1-7.6 10.7-11.3 7.5-3.1 8-9.5 8.9-15.5-3.2.5-3.5 1.7-3.6 3-.2 1.9-.9 3.3-3.1 4.4-2.6 1.4-4.7 3.6-7.1 5.4-.8.6-1.6 1-2.4 1-1.3 0-2.4-.9-2.9-2.7-.2-.9-.2-1.8-.3-2.8-.3-2.2-2.2-2.9-4.5-3-1.2 0-2.1.2-3.1.3-2.6.2-4.6 1-6.1 3-2.3 3.1-4.6 6.2-7.8 8.6-2.8 2.2-3.4 4.5-.7 7.2.6.6-.2 2-1.2 2.2-4 .8-8.1 1.5-12.2 2.3-2.7.2-3-.5-3.4-2.3-.1-.6-.2-1.5-.5-1.6-2.2-.8-4.5-1.4-6.8-2-3.5 2.5-6.5 3-9.5 3-1 0-2-.1-3.1-.1-1-.1-2.1-.1-3.1-.1-.7 0-1.4 0-2.1.1-2.7 0-4.5-.3-6.2-.4-5.7 0-9.8 1.2-12.5 5.2-3.7 2.4-5.2 6.5-8.7 9.1-3.2 2.4-5.7 5.4-8.1 8.4-1.4 1.7-3.4 3.1-5.1 4.6-1.7 1.5-3.4 3.1-5 4.7 3.2 2.2 5.3 3.8 7.3 5.5 1.1 1 2 1.4 3 1.4.9 0 1.9-.4 3.1-1.2 1-.6 1.9-.9 2.8-.9 1.6 0 3.1.8 4.5 2.2 1.2 1.1 2.3 2.4 3.5 3.4 1.1 1 1.2 2.1 1.2 3.4 1.2-1.2 1.3-2.3 1.9-2.9 1.5-1.3 3-2.5 3.5-4.5 3 3.8 4.6 7.6 3.6 11.7-.4 1.4.2 3 .6 4.5 1.1 4.2 2.3 8.4 3.4 12.6.3 1.3 0 2.4-1.8 2.8-2.8.7-3.6 2.7-4.4 4.7-.8 1.8-.8 3.6.2 5.4.6 1.1 1.3 2.2 1.8 3.3 1 2 .9 2.2-1.7 2.9-1.3.4-2.5 1.1-3.8 1.4-1.5-2.8-1.9-4.8-1.2-6.5 1.5-3.7-.9-7.4.3-11 1.2-3.6.2-7.4.5-11.1.1-.6 0-1.2-.1-1.8-.1-1-1.6-2.4-2.5-2.4-1.1.5-2.1 1.1-2.3 1.8-.6 1.8-.9 3.6-1.1 5.4-.3 2.1-.4 4.3-.6 6.4-.4 3.5-1.4 6.7-4.2 9.3-1 .9-1.6 2-2.4 3.1-2.7 3.6-4.3 7.8-7.6 11-3 3-5.8 6.2-8.4 9.4-1.7 2-3.8 3.6-6.2 4.9-1.6.9-3.3 1.5-5 1.5-1 0-1.9-.2-2.9-.6-.8-.4-1.5-.5-2.2-.5-1.6 0-2.9.9-4.4 1.7-.6-3.2.3-4.8.1-6.8-.2-1.5-.2-3.1-.3-4.6 0-1.9 1.3-3.1 3.4-3.1 4 .5 4.6.2 5.1-.5 3.3-4.4 4.7-9.6 6.6-14.5.2-.4-.3-1.2-.7-1.6-3.8.3-5.7 1.1-7.6 1.8-1 .3-2 .5-3 .7-2.7.1-4.7-.9-5.1-2.4-1.5-5.1-5.3-7.8-10.9-8.8-2.2-.4-3.6-1.6-4.3-3.6-1.5-4.1-3.1-8.2-4.8-12.2-.7-1.7-1.6-3.4-2.6-5-.5-.8-1.3-1.6-2.2-1.9-2.5-1-5.1-2.1-7.8-2.6-1.1-.2-2.2-.3-3.3-.3-2.3 0-4.7.4-7 1.2-2.6.9-3.3 1.8-2.9 4.9.2 1.6.3 3.1-.8 4.4-2.4 3-4.1 6.4-5.4 9.9-.9 2.5-4.6 4.5-7.8 4.5-.9 0-1.8-.2-2.5-.5-3.2-1.6-6.8-.9-10-2.4-.8-.4-1.6-.5-2.4-.5-1.3 0-2.5.5-3.4 1.3-4 3.6-9.4 4-14.3 4.8-.7.1-1.4.2-2.2.2-3.4 0-6.7-1.3-9.6-3.1-1.1-.7-2.2-1.5-3.3-2.2-2.4-1.5-5-2.2-7.7-2.2-.7 0-1.5 0-2.2.1-1.7.2-3.4.8-5.1.9-3.6 0-6.3-.9-7.9-3.6-.5-.8-.8-1.8-1.4-2.5-.6-.7-1.3-1.5-2.2-1.8-2.6-1-5.2-1.8-7.8-2.5-4.9-.3-7.6 2.1-7.4 5.2 0 .9.6 1.8.8 2.7.3 2.4-2.1 4.8-4.7 4.8-3.1-.2-5.8-.5-8.6-.8-1.8-.2-3.3-.8-4.7-1.8-2.6-1.8-5.3-2.6-8.1-2.6-2.4 0-4.9.7-7.4 2.1-2.1 1.1-3.9 2.5-6.1 3.6-2.7 1.3-5.6 2.5-8.4 3.5-1.5.1-2.3-.1-3-.2-.6-.1-1.2-.8-1.8-.8-5.3-.4-8.9-3.1-11.8-6.7-1.4-1.8-2.9-2.8-5-2.8-.6 0-1.3.1-2.1.3-.8.2-1.6.3-2.4.3-1.3 0-2.5-.3-3.6-.9-.9-.5-1.8-.7-2.7-.7-.7 0-1.4.1-2.2.2-.9 0-2.1-.7-2.5-1.3-1.8-2.7-3.3-5.4-4.9-8.2-1.7-2.7-3.4-5.5-6.1-7.4-1.8-1.2-2.8-3.8-5.3-3.8-2.2.2-3.9 1.7-5.7 2.6-.6.3-1.2.6-1.9.8-.8.3-1.6.4-2.4.4-1 0-1.9-.3-2.5-.9-2.2-2.4-5.2-2.8-8.2-3.4-1.5-.3-2.3-1.2-2.6-2.6-.3-1.5-.4-3.4-2.1-4-1.8-.6-3.7-1.3-5.6-1.3-1.4 0-2.8.4-4.3 1.4-1.1.8-2.4 1.5-3.7 1.7-8.8 1.8-17.1 5.2-26.1 6.3-1.6.2-1.9 1-1.4 2.8.2.6.6 1.1.7 1.7.1.6.1 1.6-.2 1.7-3.2 1-2.8 4-4.2 6-.1 1.4.1 2 .5 2.4.7.7 1.5 1.2 2.4 1.8 1.5 1 1 4-1.1 4.6-2 .6-4.1 1.1-6.1 1.1-1.7 0-3.3-.3-5-1.1-1.8-.9-3.7-1.3-5.5-1.3-1.9 0-3.8.4-5.6 1.1-1.6.6-3 .9-4.4.9-2.2 0-4.2-.8-6.1-2.3-2.9-2.4-6.2-3.2-9.9-3.2-6.7.1-11 2.6-13.4 7.7-.7 1.5-1 2-2.1 2-.6 0-1.3-.1-2.5-.3-1.9 0-3 .6-3.3 1.5-.2.9-.3 1.8-.5 2.7-1.2 4.3-.6 7.7 4.7 9.7 3.1 1.2 3.9 4.1 4.5 7 .4 2 .1 3.6-1.9 4.8-1.4.9-3.1 1.6-4.1 2.8-1.6 1.9-3.6 4-1.3 6.6 1.1 4.2 2.1 8.4 4.4 12.2.6 1-1.4 3.3-2.8 3.5-4.9-1.9-7.6-3.8-10.5-5.5-1.1-.6-2.3-1.7-3.4-1.7-5 .1-7.8-2.1-11.1-2.7-3.4-.6-6.8-1.3-10.1-2-.7-.1-1.4-.3-1.9-.7-4-2.5-7.9-5-11.9-7.5-1.2-.8-1.5-2.2-.2-3 3.9-2.3 3.3-6.6 5.5-9.6-.5-2.9 1.1-4.6 4.1-5.6.8-.3 1.9-1.1 2-1.8.3-2.1.3-4.3.2-6.4 0-.5-.5-1.3-1.1-1.5-4.1-1.7-8-3.8-12.6-4.1-3.4-.2-6-1.4-7.3-4.4-2.3-1.5-4.1-3-4.9-5.7-.6-2-1.6-2.7-3.5-2.7-.6 0-1.3.1-2.2.2-1 .2-2 .5-3 .6-.7 0-1.5-.3-1.8-.7-1.3-1.5-1.6-3.4-1.4-5.2.1-1 1.3-1.3 2.2-1.8 1.7-1.1 1.8-1.7.6-2.9-3.2-3.3-6-6.8-6.3-11.4-.1-1.7-1.5-2.8-3.4-3-6.5-.7-9.5-4.5-10.6-9.8-1.3-6.1-1.7-12.2 1.1-18.1.9-1.9 2.2-3 3.9-4.2.7-.5.9-1 .4-1.6-.3-.5-.7-1.1-1.2-1.5-3.4-2.7-2.1-3.8.1-6.1 3.3-3.6 6.6-7.2 9.8-10.8.6-.7 1.2-1.5 1.7-2.3 1-1.8 1-3.6-.4-5.2-.6-.7-1.4-1.4-2.1-2-1.3-1.1-2.1-2.5-1.7-4.1.5-1.9.1-3.7-.8-5.4-1.7-3.2-2.3-6.5-1.4-9.9.9-3.5.4-6.7-1.5-9.8-.5-.8-.7-1.7-1.1-2.6-.7-1.5-.4-3 .3-4.5.6-1.1 1.3-2.2 1.9-3.3.6-1.2.4-2.4-.4-3.5-.7-1-1.6-2-2.5-3-3.4-3.9-3.3-7.8-.1-11.7 3.4-4.1 7.9-6.9 13.2-8.6 3.1-.3 4.4.4 5.1 1.9 1.2 2.7 3.1 4.2 6.1 4.4 7.1.4 12.3 3.7 17.1 8 2.2 1.9 4.8 3.5 7.2 5.3 1.3 1 2.8 1.8 4.1 2.9 4.6 3.7 5.1 9.8 1.2 14.2-2.9 3.2-6.4 4.8-10.5 4.8-1.7 0-3.4-.3-5.3-.8-5-1.4-9.9-2.9-14.7-4.6-.3 2.5.6 3.4 1.6 4.3 1.3 1.2 1.8 2.6 1.8 4.2 0 1.8-.2 3.7-.1 5.5.3 3.5 1.5 6.5 5.3 8.4 1.8.9 3.1 2.5 5.3 2.7 1.3-3 .4-3.4-.4-4.1-.7-.7-1.5-1.3-2-2.1-.4-.5-.6-1.2-.5-1.8.2-.8.6-1.8 1.2-2.4 5.8 1.1 8.8 2.7 12.2 3.5 2.7-.4 3-1.5 2.5-2.7-.3-.9-.8-1.7-1.2-2.6-.6-1.6-.4-3.2 1-4.3 2.2-1.9 5-3.5 7-5.5 1.6-1.6 3.2-2.3 5-2.3 1.1 0 2.2.2 3.4.6 3.1.2 4.6-1.6 4.3-3.7-3-4.2-2.1-7.9-1.4-11.5.4-2.2-.3-4.3-.7-6.4 2.1-1.4 3-1.5 3.9-1.5 3.3 0 6 1.3 8.1 4.2 1.7 2.4 1.3 4-1.5 5.2-.9.4-1.9.9-2.6 1.5-.4.4-.7 1.1-.7 1.7 0 2.1 2.7 5 4.9 5.3 2.3.1 4-.6 4.5-1.7.4-.8.7-1.7 1-2.6.5-1.9 1.8-3.3 3.5-4.4 3.4-2.2 6.7-4.4 10-6.6.5-.4 1.1-.9 1.7-1 4.1-1 7.4-3.4 11.1-5 1.2-.1 2.3.5 2.5 1.2.3 1.2.5 2.4.8 3.6.2.6 1.2 1.2 2 1.2 2.9-2 5.6-3.2 8.8-3.2 4.1.1 5.6-1.9 7.6-2.8 1-.4 1.8-.7 2.6-.7 1.2 0 2.2.6 3.6 1.9 5.3-.7 5.9-1.8 4.9-3.8-1.4-3.2-3.2-6.2-6.4-8.3-1.1-.7-1.9-1.7-2.7-2.7-.7-.8-.4-2.6.6-3.4 2.5-.5 3.3-.1 3.6.3 3.6 4.3 8.5 6.1 14.3 6.6 3.2.3 6 1.6 8.6 3.1 2.9 1.7 5.7 3.5 8.7 5.1 2.7 1.5 4.7 3.6 7 5.5 3.2-.7 3.9-2 3.5-2.5-2.5-3.2-3-7.6-7.5-9.7-.7-.3-1.1-1.6-1.1-2.4 0-.9.7-1.7.8-2.6.5-3 1-6-.6-9-1.5-2.8-.7-5.4 2-7.5 3.8-3 5.2-6.1 5.6-9.6.2-1.5.3-3.1.8-4.6.4-1.5.7-3.2 1.8-4.3 2.3-2.4 3.6-5.1 4.4-8.1.2-1 1.7-1.5 3.2-1.5 3 .7 4.1 2.4 3.6 3.8-.2.6-.7 1.1-1 1.6-1.2 1.8-1.2 1.8.5 2.5 6.2 2.4 7.3 3.9 6.6 8.8-.4 2.7-1.3 5.4-2.2 8.1-.6 1.9-1 3.6.3 5.3 1.9 2.4 2.4 5.2 1.9 8-.8 4.9-.1 9.9-.4 14.8-.2 2.9.3 5.5 2.7 7.7.6.6 1.1 1.8.9 2.5-1.3 3.8-.8 8.1-4.1 11.3-2.1 4.9-6.3 7.1-12 7.4.4 2.2 1 2.7 1.6 2.8 1.7.2 3.5.3 5.2.4 1.6 0 2.6-.4 3.6-1.3 5.9-5 6-5 9.5-11.9.8-1.5 1-2.9.7-4.5-.1-.6-.3-1.2-.5-1.8-1.2-3.9 0-6.7 4.4-8.1-1.2-1.5-1.9-1.3-2.6-1.3-.8 0-1.4 0-2.1-.1-1.5-.1-2.6-1-2.9-2.2-1.1-4-1.4-7.9.6-11.8 1.3-2.5.9-4.8-.4-7.1-.7-1.4-1.2-2.9-2.1-4.2-1.8-2.5-.8-4.8.7-6.9.9-1.3 2.3-2.3 3.6-3.3 3.2-2.3 3.5-5.2 2.4-8.4-.5-1.4-1.6-2.7-2.3-4.1 5 1.6 6.6 4.5 6.3 8.2-.1 1.9-.6 3.7-.6 5.5 0 2.1.1 4.3.5 6.4.1.7 1.3 1.6 2.1 1.7 1.6.4 3.3.3 5 .5-1.4-1.4-2.9-2.7-4.2-4.2-1.6-1.9-1.7-3.9-.4-5.1.8-.7 1.7-1 2.6-1 .7 0 1.4.2 2.2.4.3-1.9-.3-2.7-.8-3.5-.6-.9-.2-1.8.3-2.5.8-1.1 1.8-1.7 2.8-1.7 4.2 2.7 8.2 2.4 10.7 4.7 2.2 2 4.4 3.9 6.7 5.8 3.3-.1 3.8-.8 3.7-1.3-.3-1.8-.6-3.7-2.8-4.6-.9-.4-1.8-.9-2.7-1.4-1.2-.7-2-1.8-2.2-3-.5-3.3-.9-6.7-1.3-10-.2-2.3 1.5-4.1 4.2-4.5 4.8-.7 9.6-1.4 14.4-1.9 2.5-.3 4.7-1 6.9-1.8 3.4-1.3 3.9-2.3 1.5-4.6-1.8-1.7-2.7-3.6-2.8-5.7-.1-1.3.4-2.8 1.7-3.1 2.7-.6 4.2-1.8 4.6-4.2.1-.5.5-1.3 1-1.5 5.4-2 8.9-6.9 14.8-8.2 2.4-.5 4.6-1.3 6.9-2 1.7-.5 2.9-1.6 3.6-3.1.4-.8 1.1-1.9 1.9-2.1 2.6-.7 5.2-1.4 7.8-1.4 2 0 4.1.4 6.1 1.7.8.5 1.7.8 2.6.8 1.1 0 2.2-.4 3.3-1 2-1.2 4.5-2.2 5.6-3.9 1.1-1.7 1.7-3.1 4-3.1 1.1 0 1.7-.1 2.4-.3 2.6-.6 3.6-1.9 3.4-4-.4-2.6.5-4.9 1.8-7.1 1.9-3.4 4.6-6.1 7.6-8.8.9-.8 2.3-1.4 3.6-1.9.6-.2 1.4-.4 2.1-.4 3.3 1.2 5.7 2.5 8 3.9.4.2.6 1.2.5 1.7-.4 1.2-1.1 2.2-1.6 3.4-.6 1.5-.1 2.3 1.8 2.7.7.2 1.4.2 2 .4 3.8 1 4.3 1.9 3.3 5.3-.2.6-.6 1.2-.5 1.7.1.5.6 1 1 1.4 2.7-2.2 4.9-3.1 7.7-3.1h6.5c2.8 0 4.8.8 6.4 2.6l5.7 6.6c2.6 3.1 4.2 6.4 3.1 10.3-.2.9-.1 1.8-.1 2.8.1 2.6-1.2 4.8-3 6.7-1.3 1.4-3 2.6-4.2 4.1-.6.6-.6 1.6-.9 2.4-3.8.2-6.2 2.4-8.4 4.7-2.4 2.6-4.9 5.2-7.2 7.9-1.3 1.5-3 2.5-5.1 3.1-1.5.4-1.9 1.7-2.3 2.9-.3.9.4 2 1.4 2 4.9-1.3 7.7-2.6 10.4-3.9 1.2-.6.9-1.5.6-2.4-.2-.6-.4-1.2-.5-1.8-.1-1.6 1.4-3.1 3.1-3.1 2.4 0 3.9.2 4.9 1.2 1.4 1.6 3 2.2 4.8 2.2.8 0 1.7-.1 2.7-.3 2.6 2 3.9 2.5 5.2 2.5.7 0 1.4-.1 2-.4 1.9-.7 3.7-1.1 5.5-1.1 1.9 0 3.7.3 5.6.9 2 .6 4.1.7 6.1 1.1 1.2.2 1.7 1.2 1.5 2.1-.5 2.7 1.1 4.1 3.6 4.8 3.2 1 6.4 1.6 9.7 1.6 1.5 0 3.1-.1 4.7-.4 1.7-.3 2.9-1.4 3-3.2.1-1.2 0-2.5.2-3.7.4-1.8 3.3-3.4 5.5-3.4 2.1.6 2.9 1.2 3.9 1.5 1.8.6 3.7 1.7 5.5 1.7 5.2-.1 7.8 1.8 10.4 4 2.1 1.8 3.3 3.9 3 6.6-.2 1.8.2 3.7.2 5.5 0 1.2-.2 2.5-.5 3.6-1.8 6.1.7 10.8 6 14.7 2.3.4 3.3 0 3.5-.8l3.6-9.6c.2-.6 1.2-1 1.9-1 1.1.7 1.5 1.2 2 1.6.9.9 1.7 2 2.8 2.7.8.5 1.9.6 2.9.6.6 0 1.3-.4 1.9-.7 1.8-1 3.5-1.4 5.5-1.4.8 0 1.6.1 2.4.2 1.6.2 3.3.3 5 .3 2.5 0 5-.1 7.5-.2 1.8-3.6 1.4-6-.2-8.2-.7-.9.3-2.7 1.4-3.2 1.3-.5 2.6-.7 3.9-1.1 1-.3 1.6-1 1.9-2 .3-1.2 1.1-1.9 2.3-1.9 2.7.5 4.7 1.2 6.7 1.4 6.3.4 12.4 1.7 18.1 4 1.5.6 3.4.6 5.1.9 1.7.3 3.4.6 5 1.1 2.7.9 5 2.4 5.1 5.2.1 2.5 1.6 4 3.6 5.3 1.7 1.1 3.9 1.7 4.7 3.5 1.3 2.7 3.2 3.9 5.5 3.9 1.1 0 2.4-.3 3.8-.7 2.3-.8 4.6-1.4 7-1.8 1.7-.3 3.4-.5 5.1-.5 3.5 0 6.9.7 10.1 2.3 3.9 1.9 6.4 4.7 6.1 9-.1 1.2-.1 2.5 0 3.7.1.5.6 1.1 1.1 1.5 1.7 1.1 3.5 2 5.6 2 .7 0 1.4-.1 2.2-.4 2.2-.7 4.3-1.1 6.5-1.1 1.9 0 3.8.3 5.7.9 2.2.7 4.8.7 7.2.8 2.2 0 3.6-.4 4.7-1.6.7-.7 1.3-1.4 2.1-2.1 1.1-.9 1.9-1.4 3-1.4 1 0 2 .4 3.4 1.4.7.5 1.1 1.9.5 2.5-.6.7-1.5 1.2-2.2 1.8-1.7 1.2-1.9 1.9-.7 2.9 1.5 1.3 3.1 2.5 4.6 3.8 4.3-.3 5.3-1.6 5-2.5-.4-1.2-.6-2.5-1.3-3.5-1.5-2.2-.5-4.2.4-6.2.2-.5 1-1 1.6-1 1.8 0 3 .1 4.1.3 2.7.5 5.4 1.2 8.2 1.5 3.8.4 7.7.1 11.4.9 3.3.7 6.2 2.8 9.4 3.9 3 1.1 5.4 2.7 7.8 4.5 6.1 4.6 12.4 8.9 18.8 13.2 3.8 2.6 6.4 5.6 6.3 10.1 2.8-.2 3.7-1.1 4.5-1.1 2.4.1 4.9.4 7.2.9 1 .2 1.9.7 2.6 1.4 2.4 1.5 4.8 3.8 7 6.1zm-489-45.5c1.3-.5 2.3-1.5 2-2.8-.5-2.4-1.3-4.7-2.1-7-.1-.3-.9-.7-1.4-.7h-.2c-.5.1-1 .8-1.1 1.2-.2 1.2-.2 2.4-.3 4.7 0 .4-.1 1.9 0 3.4 0 .5.6 1.1 1.1 1.3.2.1.4.1.6.1.6.1 1.1 0 1.4-.2zm-25.4 21.9c.2-.5.3-.9.6-1.7-.3-.6-.6-1.4-1.1-2.1-.1-.2-.5-.3-.8-.4-.2.4-.8 1-.7 1.3.3.8 1 1.5 1.5 2.2.1.3.3.5.5.7z"></path>
			</g>
			<g>
				<path class="map-st5" d="M597.5 240.6c.1.6 0 1.3-.2 1.8-.3.5-.8 1.2-1.3 1.3-.8.2-1.6.2-2.4.2-3.7 0-7.1-1.6-10.4-3-.3-.1-.3-1.2 0-1.7.6-1.4 1.5-2.7 1.2-4.3.9-.3 1.8-.7 2.7-.8.7-.1 1.3-.2 1.9-.2 4.3-.1 7.8 2.6 8.5 6.7z"></path>
			</g>
			<g>
				<path class="map-st5" d="M250.8 183.5c1.1 0 2.2.3 3.2.9 1.9 1.2 2.9 3.7 2.4 5.7-.9 3.4-2.4 6.4-6 8.3-5.4 2.8-10.8 5.6-16.3 8.1-4.6 2.1-9.2 4.3-12.7 7.8-.9.9-2 1.8-2.5 2.9-1.4 2.9-3.4 5.3-6.3 7.2-1.3.9-2.1 2.4-2.9 3.7-3.3 5.4-5.8 11.1-9.6 16.3-1.8 2.6-3 5.6-4.2 8.4-1.4 3.2-1.4 6.5-.5 10 1.3 5 4.3 9 7.9 12.8.6.6-.1 2.1-1 2.3-.3.1-.6.3-1 .3-1 .1-2 .1-2.7.2-3.5-.5-6.7 0-9.6-1.5-1.2-.6-2.9-1-3.4-1.9-1-1.9-3-2.4-4.4-3.7-1.7-1.5-3-3.4-4.5-5.1-.2-.2-.4-.5-.6-.8-1.5-2.1-1.4-5.1 1-6.7 2.8-1.9 4.2-4 3.5-7.1-.3-1.3-.2-2.4.6-3.5 1.3-1.8 2.4-3.8 4-5.3 2-1.8 2.3-3.5 1.4-5.8-.3-.7.2-1.8.7-2.6.5-.8 1.2-1.5 1.9-2.2 4.2-3.6 5.2-8.6 7-13.2.2-.5-.1-1.2-.2-1.8-.2-1.3.1-2.3 1.4-3.2 1.7-1.1 3.6-2.1 4.7-3.5 4.5-6.1 11.9-9.3 17.8-14 .8-.6 1.7-1 2.7-1 .4 0 .8.1 1.2.2 1 .4 2 .5 2.9.5 2.1 0 4.1-.8 6.1-1.6 3.8-1.5 7.2-3.5 9.5-6.8 1.2-1.7 3.5-2.9 5.6-4 1.1-.1 2-.3 2.9-.3z"></path>
			</g>
		</g>
	</g>
	<g class="map-hills">
		<linearGradient id="map-gradient--1" gradientUnits="userSpaceOnUse" x1="383.182" y1="396.755" x2="420.338" y2="396.755">
			<stop offset="0" stop-color="#9CBD24"></stop>
			<stop offset="1" stop-color="#9FC41A"></stop>
		</linearGradient>
		<path class="map-st7" d="M383.2 405s4.4-16.5 18.6-16.5c14.1 0 18.6 16.5 18.6 16.5h-37.2z"></path>
		<linearGradient id="map-gradient--2" gradientUnits="userSpaceOnUse" x1="323.358" y1="395.945" x2="366.689" y2="395.945">
			<stop offset="0" stop-color="#9CBD24"></stop>
			<stop offset="1" stop-color="#9FC41A"></stop>
		</linearGradient>
		<path class="map-st8" d="M323.4 405s6.2-18.2 21.7-18.2 21.7 18.2 21.7 18.2h-43.4z"></path>
		<linearGradient id="map-gradient--3" gradientUnits="userSpaceOnUse" x1="343.74" y1="399.081" x2="400.281" y2="399.081">
			<stop offset="0" stop-color="#96B524"></stop>
			<stop offset="1" stop-color="#A4C727"></stop>
		</linearGradient>
		<path class="map-st9" d="M343.7 414.1s11.2-30 28.3-30 28.3 30 28.3 30h-56.6z"></path>
		<g>
			<linearGradient id="map-gradient--4" gradientUnits="userSpaceOnUse" x1="326.598" y1="417.215" x2="363.708" y2="417.215">
				<stop offset="0" stop-color="#9CBD24"></stop>
				<stop offset="1" stop-color="#9FC41A"></stop>
			</linearGradient>
			<path class="map-st10" d="M326.6 425.5S331 409 345.2 409s18.6 16.5 18.6 16.5h-37.2z"></path>
		</g>
	</g>
	<g class="water">
		<path class="map-st11" d="M168.7 446.3v15.6c4.8-2.6 13.3-3.2 18.3.2 0-3.7.2-15.5.2-15.5s-3.6-4.6-9.3-4.6c-5.6-.1-9.2 4.3-9.2 4.3z"></path>
		<path class="map-st12" d="M462.9 404.4c2.1-3.7 3.9-7.8 7.3-9.5 1.2-.6 2.6-.6 4-.6 3.4 0 6.8.1 10.1.1 2.3 0 5.2.4 6.1 2.6 1 2.7-3 8.5-3.3 11.4-.3 2.3 2.1 2.5 1 5.2-.9 2.3-5.3 4-7.4 4.8-7.6 2.9-9.5 10.1-16.3 12.3-3.4 1.1-7 0-10.6 1.6-3.8 1.6-6.2 5.4-9.7 7-.7.3-1.6.5-2.4.5-2 .1-4-.4-5.8-1.4-2.3 2.5-6.1 2.4-9.5 2-.5-.1-1.1-.1-1.6-.4-1.3-.7-1.3-2.6-.6-3.8 2.9-4.6 11.4-6.1 10.4-13.6-.3-2.2-2.2-4.1-1.7-6.2.4-1.8 2.3-2.8 4.1-3.3 7-1.9 15.3 1.1 21.2-3 1.9-1.3 3.4-3.5 4.7-5.7zM238 384c29.3 0 .3 5.8 36.7 5.8 22.5 0 9.8 8.9.2 8.9-13.6 0-3.3 6.7-17.7 6.7-15.3 0-8.4 4.8-20.3 4.8-11.4 0-4.7-8.4-17.5-8.4-14.4 0-3.4-3.9-14.5-3.9-16 0-18.8-8-4.8-8 33.2 0 13.7-5.9 37.9-5.9z"></path>
		<path class="map-st12" d="M343.1 297.8c-1.5-3.8-3.7-8-3.2-12.1.4-3.3 2-5.5 3.5-8.4 3.7-6.9 6.7-14.5 3.9-22.2-4.2-11.7-11.5-14-15.3-20-6 0-9.1.4-13.9 2 1.8 4.5 13.1 6.2 17 19 3.9 12.9-7 18-7.6 27.8-.2 4.4 2.1 8.1 4.6 11.7 2.9 4.2 7.8 12.4 6.3 17.6-1.5 5.1-8.6 7.6-12 11.2-6.1 6.4-5.8 16.4-8.1 24.9-.3 1-.6 2-1.2 2.8-3.9 5.8-15.1 2.7-19.9.1-9.1-4.8-23.4-7.2-35.3-6.5-4.6.3-9.2.9-13.6 2-6.2 1.6-11.6 4.1-16.3 8.2-4.5 3.9-12.3 7.6-10.9 14.7.3 1.7.2 3.1 0 4.8-.2 2.2 1.1 4.2 2.4 6 .7 1 1.4 1.7 1.5 2.9.1 1.2-.8 2.5-.3 3.8 1.2 3.3 8.9 3 11.8 3.2 3 .3 6 .6 9 1 3.4.5 7.5 1.9 11 1.7 2.2-.2 1.6-1.2.7-2.7-.8-1.6-1.8-3.2-3.1-4.5-1.5-1.4-3.6-2.7-5.3-3.9-1.2-2.5-3.9-3.4-4.8-6.3-.7-2.4-.2-5.5-.2-8 0-2.2-.4-4.4.6-6.5 1-2 2.8-3.4 4.9-4.4 5.8-2.8 13.4-2.7 19.8-2.7 8.6.1 17.2 2.3 24.8 6.2 6.9 3.5 15.1 6 22.9 4.5 8.3-1.6 10.8-7.3 12.1-15 1.7-9.9 2.6-17.9 12.4-23.5 1.5-.9 3.1-1.6 4.3-2.8 6.8-6.6.4-19.7-2.5-26.6zM228.3 405.6c-.5 6.7-17.1 14.2-32.9 14.8-18.8.8-32.6 8.9-26.7 25.9 7.1-3.6 13.2-2.5 18.5.3-.7-1.8-7-14.3 11.5-16.4 21.6-2.5 35-11 46.7-22.2 11.8-11.2-16.5-9.8-17.1-2.4z"></path>
	</g>
	<g class="map-clouds">
		<g class="map-cloud">
			<path class="map-cloud__shadow map-st1" d="M727 170.9c-1.2 0-2.4.2-3.5.4-2.1-5.9-7.7-10.1-14.3-10.1-8.1 0-14.7 6.3-15.1 14.3-.5-.1-1-.1-1.5-.1-6.3 0-11.4 5.1-11.4 11.4 0 6.3 5.1 11.4 11.4 11.4H727c7.5 0 13.7-6.1 13.7-13.7 0-7.5-6.1-13.6-13.7-13.6z"></path>
			<path class="map-cloud__steam map-st13" d="M723.1 167.3c-1.2 0-2.4.2-3.5.4-2.1-5.9-7.7-10.1-14.3-10.1-8.1 0-14.7 6.3-15.1 14.3-.5-.1-1-.1-1.5-.1-6.3 0-11.4 5.1-11.4 11.4 0 6.3 5.1 11.4 11.4 11.4h34.4c7.5 0 13.7-6.1 13.7-13.7-.1-7.5-6.2-13.6-13.7-13.6z"></path></g>
		<g class="map-cloud">
			<path class="map-cloud__shadow map-st1" d="M614.4 102.7c-1.6 0-3.2.2-4.7.6-2.8-8-10.4-13.7-19.3-13.7-10.9 0-19.9 8.6-20.5 19.4-.7-.1-1.3-.2-2-.2-8.5 0-15.4 6.9-15.4 15.4s6.9 15.4 15.4 15.4h46.6c10.2 0 18.5-8.3 18.5-18.5-.1-10.1-8.4-18.4-18.6-18.4z"></path>
			<path class="map-cloud__steam map-st13" d="M610.4 99.1c-1.6 0-3.2.2-4.7.6-2.8-8-10.4-13.7-19.3-13.7-10.9 0-19.9 8.6-20.5 19.4-.7-.1-1.3-.2-2-.2-8.5 0-15.4 6.9-15.4 15.4s6.9 15.4 15.4 15.4h46.6c10.2 0 18.5-8.3 18.5-18.5-.1-10.1-8.4-18.4-18.6-18.4z"></path>
		</g>
	</g>
	<g class="map-houses">
		<g class="map-house" transform-origin="center center">
			<path class="map-st14 map-house__roof" d="M177.3 371.4h-19.9v-13.1l9.9-6.6 10 6.6z"></path>
			<path class="map-st15 map-house__wall" d="M177.3 381.2h-19.9v-13.1l9.9-6.6 10 6.6z"></path>
			<path class="map-st16 map-house__door" d="M164.9 373.7h5v7.5h-5z"></path>
		</g>
		<g class="map-house">
			<path class="map-st14 map-house__roof" d="M111.2 416.3h-20v-13l10-6.7 10 6.7z"></path>
			<path class="map-st15 map-house__wall" d="M111.2 426.1h-20v-13l10-6.6 10 6.6z"></path>
			<path class="map-st16 map-house__door" d="M98.7 418.7h5v7.5h-5z"></path>
		</g>
		<g class="map-house">
			<path class="map-st17 map-house__roof" d="M53.7 409.9H33.8v-13l9.9-6.6 10 6.6z"></path>
			<path class="map-st15 map-house__wall" d="M53.7 419.8H33.8v-13.1l9.9-6.6 10 6.6z"></path>
			<path class="map-st16 map-house__door" d="M41.2 412.3h5v7.5h-5z"></path>
		</g>
		<g class="map-house">
			<path class="map-st17 map-house__roof" d="M635.1 321.7h-20v-13l10-6.6 10 6.6z"></path>
			<path class="map-st15 map-house__wall" d="M635.1 331.6h-20v-13.1l10-6.6 10 6.6z"></path>
			<path class="map-st16 map-house__door" d="M622.6 324.1h5v7.5h-5z"></path>
		</g>
		<g class="map-house">
			<path class="map-st17 map-house__roof" d="M562.4 445.6h-20v-13l10-6.6 10 6.6z"></path>
			<path class="map-st15 map-house__wall" d="M562.4 455.5h-20v-13.1l10-6.6 10 6.6z"></path>
			<path class="map-st16 map-house__door" d="M549.9 448h5v7.5h-5z"></path>
		</g>
		<g class="map-house">
			<path class="map-st17 map-house__roof" d="M673.8 409.9h-19.9v-13l9.9-6.6 10 6.6z"></path>
			<path class="map-st15 map-house__wall" d="M673.8 419.8h-19.9v-13.1l9.9-6.6 10 6.6z"></path>
			<path class="map-st16 map-house__door" d="M661.3 412.3h5v7.5h-5z"></path>
		</g>
		<g class="map-house">
			<path class="map-st17 map-house__roof" d="M452 387.1h-20V374l10-6.6 10 6.6z"></path>
			<path class="map-st15 map-house__wall" d="M452 396.9h-20v-13.1l10-6.6 10 6.6z"></path>
			<path class="map-st16 map-house__door" d="M439.5 389.4h5v7.5h-5z"></path>
		</g>
		<g class="map-house">
			<path class="map-st17 map-house__roof" d="M594.1 203.2h-20v-13l10-6.7 10 6.7z"></path>
			<path class="map-st15 map-house__wall" d="M594.1 213.1h-20V200l10-6.6 10 6.6z"></path>
			<path class="map-st16 map-house__door" d="M581.6 205.6h5v7.5h-5z"></path>
		</g>
		<g class="map-house">
			<path class="map-st18 map-house__roof" d="M144.5 390.9h-19.9v-13l10-6.7 9.9 6.7z"></path>
			<path class="map-st15 map-house__wall" d="M144.5 400.8h-19.9v-13.1l10-6.6 9.9 6.6z"></path>
			<path class="map-st16 map-house__door" d="M132.1 393.3h5v7.5h-5z"></path>
		</g>
		<g class="map-house">
			<path class="map-st18 map-house__roof" d="M666.8 335.7h-20v-13.1l10-6.6 10 6.6z"></path>
			<path class="map-st15 map-house__wall" d="M666.8 345.5h-20v-13l10-6.6 10 6.6z"></path>
			<path class="map-st16 map-house__door" d="M654.3 338.1h5v7.5h-5z"></path>
		</g>
		<g class="map-house">
			<path class="map-st18 map-house__roof" d="M772 315.6h-20v-13l10-6.7 10 6.7z"></path>
			<path class="map-st15 map-house__wall" d="M772 325.4h-20v-13l10-6.6 10 6.6z"></path>
			<path class="map-st16 map-house__door" d="M759.5 318h5v7.5h-5z"></path>
		</g>
		<g class="map-house">
			<path class="map-st18 map-house__roof" d="M406 299.1h-20V286l10-6.6 10 6.6z"></path>
			<path class="map-st15 map-house__wall" d="M406 308.9h-20v-13l10-6.7 10 6.7z"></path>
			<path class="map-st16 map-house__door" d="M393.5 301.5h5v7.5h-5z"></path>
		</g>
		<g class="map-house">
			<path class="map-st18 map-house__roof" d="M212 362.1h-20V349l10-6.6 10 6.6z"></path>
			<path class="map-st15 map-house__wall" d="M212 371.9h-20v-13l10-6.7 10 6.7z"></path>
			<path class="map-st16 map-house__door" d="M199.5 364.5h5v7.5h-5z"></path>
		</g>
		<g class="map-house">
			<path class="map-st18 map-house__roof" d="M136.8 472.7h-20v-13l10-6.6 10 6.6z"></path>
			<path class="map-st15 map-house__wall" d="M136.8 482.6h-20v-13.1l10-6.6 10 6.6z"></path>
			<path class="map-st16 map-house__door" d="M124.3 475.1h5v7.5h-5z"></path>
		</g>
		<g class="map-house">
			<path class="map-st19 map-house__roof" d="M215.5 400.9h-20v-13.1l10-6.6 10 6.6z"></path>
			<path class="map-st15 map-house__wall" d="M215.5 410.7h-20v-13l10-6.7 10 6.7z"></path>
			<path class="map-st16 map-house__door" d="M203 403.2h5v7.5h-5z"></path>
		</g>
		<g class="map-house">
			<path class="map-st19 map-house__roof" d="M730.7 352h-20v-13l10-6.6 10 6.6z"></path>
			<path class="map-st15 map-house__wall" d="M730.7 361.9h-20v-13.1l10-6.6 10 6.6z"></path>
			<path class="map-st16 map-house__door" d="M718.2 354.4h5v7.5h-5z"></path>
		</g>
	</g>
	<g class="map-trees">
		<g class="map-tree">
			<ellipse class="map-tree__crown map-st20" cx="694.8" cy="292.1" rx="9.1" ry="8.5"></ellipse>
			<path class="map-tree__trunk map-st21" d="M696.1 304.8h-2.6l.4-8.2c0-.4.4-.7.8-.7.5 0 1 .4 1 .9l.4 8z"></path>
		</g>
		<g class="map-tree">
			<ellipse class="map-tree__crown map-st20" cx="492.6" cy="374.9" rx="9.1" ry="8.5"></ellipse>
			<path class="map-tree__trunk map-st21" d="M493.9 387.6h-2.6l.4-8.2c0-.4.4-.7.8-.7.5 0 1 .4 1 .9l.4 8z"></path>
		</g>
		<g class="map-tree">
			<ellipse class="map-tree__crown map-st20" cx="112.8" cy="299" rx="9.1" ry="8.5"></ellipse>
			<path class="map-tree__trunk map-st21" d="M114.1 311.7h-2.6l.4-8.2c0-.4.4-.7.8-.7.5 0 1 .4 1 .9l.4 8z"></path>
		</g>
		<g class="map-tree">
			<ellipse class="map-tree__crown map-st20" cx="112.8" cy="427.8" rx="9.1" ry="8.5"></ellipse>
			<path class="map-tree__trunk map-st21" d="M114.1 440.5h-2.6l.4-8.2c0-.4.4-.7.8-.7.5 0 1 .4 1 .9l.4 8z"></path>
		</g>
		<g class="map-tree">
			<ellipse class="map-tree__crown map-st20" cx="524.1" cy="347.9" rx="9.1" ry="8.5"></ellipse>
			<path class="map-tree__trunk map-st21" d="M525.4 360.6h-2.6l.4-8.2c0-.4.4-.7.8-.7.5 0 1 .4 1 .9l.4 8z"></path>
		</g>
		<g class="map-tree">
			<ellipse class="map-tree__crown map-st20" cx="411" cy="307.5" rx="9.1" ry="8.5"></ellipse>
			<path class="map-tree__trunk map-st21" d="M412.3 320.2h-2.6l.4-8.2c0-.4.4-.7.8-.7.5 0 1 .4 1 .9l.4 8z"></path>
		</g>
		<g class="map-tree">
			<ellipse class="map-tree__crown map-st22" cx="544.6" cy="371.9" rx="9.1" ry="8.5"></ellipse>
			<path class="map-tree__trunk map-st21" d="M545.9 384.6h-2.6l.4-8.2c0-.4.4-.7.8-.7.5 0 1 .4 1 .9l.4 8z"></path>
		</g>
		<g class="map-tree">
			<ellipse class="map-tree__crown map-st22" cx="546.9" cy="307.2" rx="9.1" ry="8.5"></ellipse>
			<path class="map-tree__trunk map-st21" d="M548.2 319.9h-2.6l.4-8.2c0-.4.4-.7.8-.7.5 0 1 .4 1 .9l.4 8z"></path>
		</g>
		<g class="map-tree">
			<ellipse class="map-tree__crown map-st22" cx="142.2" cy="471.5" rx="9.1" ry="8.5"></ellipse>
			<path class="map-tree__trunk map-st21" d="M143.5 484.2h-2.6l.4-8.2c0-.4.4-.7.8-.7.5 0 1 .4 1 .9l.4 8z"></path>
		</g>
		<g class="map-tree">
			<path class="map-tree__crown map-st20" d="M576.9 371.6l9.1-27.3 9.1 27.3z"></path>
			<path class="map-tree__trunk map-st21" d="M587.3 376.1h-2.6l.4-9h1.8z"></path>
		</g>
		<g class="map-tree">
			<path class="map-tree__crown map-st20" d="M555.9 284.1l9.1-27.3 9.1 27.3z"></path>
			<path class="map-tree__trunk map-st21" d="M566.4 288.6h-2.7l.5-8.9h1.7z"></path>
		</g>
		<g class="map-tree">
			<path class="map-tree__crown map-st20" d="M511.5 325.8l9.1-27.3 9.1 27.3z"></path>
			<path class="map-tree__trunk map-st21" d="M521.9 330.3h-2.7l.5-8.9h1.7z"></path>
		</g>
		<g class="map-tree">
			<path class="map-tree__crown map-st20" d="M293.9 403.9l9.1-27.3 9.1 27.3z"></path>
			<path class="map-tree__trunk map-st21" d="M304.3 408.3h-2.6l.4-8.9h1.8z"></path>
		</g>
		<g class="map-tree">
			<path class="map-tree__crown map-st20" d="M126.8 451.6l9.1-27.3 9.1 27.3z"></path>
			<path class="map-tree__trunk map-st21" d="M137.2 456h-2.6l.4-8.9h1.7z"></path>
		</g>
		<g class="map-tree">
			<path class="map-tree__crown map-st20" d="M388.3 357.2l9-27.3 9.1 27.3z"></path>
			<path class="map-tree__trunk map-st21" d="M398.7 361.6H396l.5-8.9h1.7z"></path>
		</g>
		<g class="map-tree">
			<path class="map-tree__crown map-st22" d="M546.9 350.1l9-27.3 9.1 27.3z"></path>
			<path class="map-tree__trunk map-st21" d="M557.3 354.6h-2.7l.5-8.9h1.7z"></path>
		</g>
		<g class="map-tree">
			<path class="map-tree__crown map-st22" d="M81 301.2l9.1-27.3 9.1 27.3z"></path>
			<path class="map-tree__trunk map-st21" d="M91.4 305.6h-2.6l.4-8.9H91z"></path>
		</g>
		<g class="map-tree">
			<path class="map-tree__crown map-st22" d="M147 430.7l9.1-27.3 9.1 27.3z"></path>
			<path class="map-tree__trunk map-st21" d="M157.4 435.2h-2.6l.4-8.9h1.7z"></path>
		</g>
		<g class="map-tree">
			<path class="map-tree__crown map-st22" d="M80.4 396.1l9.1-27.3 9.1 27.3z"></path>
			<path class="map-tree__trunk map-st21" d="M90.8 400.6h-2.6l.4-8.9h1.8z"></path>
		</g>
		<g class="map-tree">
			<path class="map-tree__crown map-st22" d="M240.5 330.8l9.1-27.3 9.1 27.3z"></path>
			<path class="map-tree__trunk map-st21" d="M251 335.2h-2.7l.5-8.9h1.7z"></path>
		</g>
		<g class="map-tree">
			<path class="map-tree__crown map-st22" d="M485.7 343.8l9.1-27.3 9.1 27.3z"></path>
			<path class="map-tree__trunk map-st21" d="M496.2 348.2h-2.7l.5-8.9h1.7z"></path>
		</g>
	</g>
</svg>
